<?xml version="1.0" encoding="utf-8"?>
<!DOCTYPE eagle SYSTEM "eagle.dtd">
<eagle version="9.6.2">
<drawing>
<settings>
<setting alwaysvectorfont="no"/>
<setting verticaltext="up"/>
</settings>
<grid distance="10" unitdist="mil" unit="mil" style="lines" multiple="1" display="yes" altdistance="5" altunitdist="mil" altunit="mil"/>
<layers>
<layer number="1" name="Top" color="4" fill="1" visible="yes" active="yes"/>
<layer number="2" name="Route2" color="1" fill="3" visible="no" active="no"/>
<layer number="3" name="Route3" color="4" fill="3" visible="no" active="no"/>
<layer number="4" name="Route4" color="1" fill="4" visible="no" active="no"/>
<layer number="5" name="Route5" color="4" fill="4" visible="no" active="no"/>
<layer number="6" name="Route6" color="1" fill="8" visible="no" active="no"/>
<layer number="7" name="Route7" color="4" fill="8" visible="no" active="no"/>
<layer number="8" name="Route8" color="1" fill="2" visible="no" active="no"/>
<layer number="9" name="Route9" color="4" fill="2" visible="no" active="no"/>
<layer number="10" name="Route10" color="1" fill="7" visible="no" active="no"/>
<layer number="11" name="Route11" color="4" fill="7" visible="no" active="no"/>
<layer number="12" name="Route12" color="1" fill="5" visible="no" active="no"/>
<layer number="13" name="Route13" color="4" fill="5" visible="no" active="no"/>
<layer number="14" name="Route14" color="1" fill="6" visible="no" active="no"/>
<layer number="15" name="Route15" color="4" fill="6" visible="no" active="no"/>
<layer number="16" name="Bottom" color="1" fill="1" visible="yes" active="yes"/>
<layer number="17" name="Pads" color="2" fill="1" visible="yes" active="yes"/>
<layer number="18" name="Vias" color="2" fill="1" visible="yes" active="yes"/>
<layer number="19" name="Unrouted" color="6" fill="1" visible="yes" active="yes"/>
<layer number="20" name="Dimension" color="24" fill="1" visible="yes" active="yes"/>
<layer number="21" name="tPlace" color="7" fill="1" visible="yes" active="yes"/>
<layer number="22" name="bPlace" color="7" fill="1" visible="yes" active="yes"/>
<layer number="23" name="tOrigins" color="15" fill="1" visible="yes" active="yes"/>
<layer number="24" name="bOrigins" color="15" fill="1" visible="yes" active="yes"/>
<layer number="25" name="tNames" color="7" fill="1" visible="yes" active="yes"/>
<layer number="26" name="bNames" color="7" fill="1" visible="yes" active="yes"/>
<layer number="27" name="tValues" color="7" fill="1" visible="no" active="yes"/>
<layer number="28" name="bValues" color="7" fill="1" visible="no" active="yes"/>
<layer number="29" name="tStop" color="7" fill="3" visible="yes" active="yes"/>
<layer number="30" name="bStop" color="7" fill="6" visible="no" active="yes"/>
<layer number="31" name="tCream" color="7" fill="4" visible="no" active="yes"/>
<layer number="32" name="bCream" color="7" fill="5" visible="no" active="yes"/>
<layer number="33" name="tFinish" color="6" fill="3" visible="no" active="yes"/>
<layer number="34" name="bFinish" color="6" fill="6" visible="no" active="yes"/>
<layer number="35" name="tGlue" color="7" fill="4" visible="no" active="yes"/>
<layer number="36" name="bGlue" color="7" fill="5" visible="no" active="yes"/>
<layer number="37" name="tTest" color="7" fill="1" visible="no" active="yes"/>
<layer number="38" name="bTest" color="7" fill="1" visible="yes" active="yes"/>
<layer number="39" name="tKeepout" color="4" fill="11" visible="yes" active="yes"/>
<layer number="40" name="bKeepout" color="1" fill="11" visible="yes" active="yes"/>
<layer number="41" name="tRestrict" color="4" fill="10" visible="yes" active="yes"/>
<layer number="42" name="bRestrict" color="1" fill="10" visible="yes" active="yes"/>
<layer number="43" name="vRestrict" color="2" fill="10" visible="no" active="yes"/>
<layer number="44" name="Drills" color="7" fill="1" visible="yes" active="yes"/>
<layer number="45" name="Holes" color="7" fill="1" visible="yes" active="yes"/>
<layer number="46" name="Milling" color="3" fill="1" visible="yes" active="yes"/>
<layer number="47" name="Measures" color="7" fill="1" visible="no" active="yes"/>
<layer number="48" name="Document" color="7" fill="1" visible="no" active="yes"/>
<layer number="49" name="Reference" color="7" fill="1" visible="no" active="yes"/>
<layer number="51" name="tDocu" color="53" fill="1" visible="yes" active="yes"/>
<layer number="52" name="bDocu" color="61" fill="1" visible="yes" active="yes"/>
<layer number="88" name="SimResults" color="9" fill="1" visible="no" active="no"/>
<layer number="89" name="SimProbes" color="9" fill="1" visible="no" active="no"/>
<layer number="90" name="Modules" color="5" fill="1" visible="no" active="no"/>
<layer number="91" name="Nets" color="2" fill="1" visible="no" active="no"/>
<layer number="92" name="Busses" color="1" fill="1" visible="no" active="no"/>
<layer number="93" name="Pins" color="2" fill="1" visible="no" active="no"/>
<layer number="94" name="Symbols" color="4" fill="1" visible="no" active="no"/>
<layer number="95" name="Names" color="7" fill="1" visible="no" active="no"/>
<layer number="96" name="Values" color="7" fill="1" visible="no" active="no"/>
<layer number="97" name="Info" color="7" fill="1" visible="no" active="no"/>
<layer number="98" name="Guide" color="6" fill="1" visible="no" active="no"/>
</layers>
<board>
<plain>
<wire x1="0" y1="0" x2="17.78" y2="0" width="0" layer="20"/>
<wire x1="17.78" y1="0" x2="17.78" y2="28" width="0" layer="20"/>
<wire x1="17.78" y1="28" x2="0" y2="28" width="0" layer="20"/>
<wire x1="0" y1="28" x2="0" y2="0" width="0" layer="20"/>
<text x="14.251" y="24.019" size="1.27" layer="21" rot="R90">1</text>
<text x="0.762" y="0.381" size="1.778" layer="25">Riser EIB v0.2</text>
<text x="2.286" y="25.908" size="1.778" layer="25">AdaptAMaze</text>
</plain>
<libraries>
<library name="SnapEDA-Library">
<packages>
<package name="CUI_SJ1-42514">
<wire x1="-0.75" y1="0.4" x2="0.75" y2="0.4" width="0.0001" layer="46"/>
<wire x1="0.75" y1="0.4" x2="0.75" y2="-0.4" width="0.0001" layer="46"/>
<wire x1="0.75" y1="-0.4" x2="-0.75" y2="-0.4" width="0.0001" layer="46"/>
<wire x1="-0.75" y1="-0.4" x2="-0.75" y2="0.4" width="0.0001" layer="46"/>
<wire x1="4.95" y1="1.5" x2="6.45" y2="1.5" width="0.0001" layer="46"/>
<wire x1="6.45" y1="1.5" x2="6.45" y2="0.7" width="0.0001" layer="46"/>
<wire x1="6.45" y1="0.7" x2="4.95" y2="0.7" width="0.0001" layer="46"/>
<wire x1="4.95" y1="0.7" x2="4.95" y2="1.5" width="0.0001" layer="46"/>
<wire x1="4.95" y1="8.7" x2="6.45" y2="8.7" width="0.0001" layer="46"/>
<wire x1="6.45" y1="8.7" x2="6.45" y2="7.9" width="0.0001" layer="46"/>
<wire x1="6.45" y1="7.9" x2="4.95" y2="7.9" width="0.0001" layer="46"/>
<wire x1="4.95" y1="7.9" x2="4.95" y2="8.7" width="0.0001" layer="46"/>
<wire x1="0.25" y1="9.1" x2="1.75" y2="9.1" width="0.0001" layer="46"/>
<wire x1="1.75" y1="9.1" x2="1.75" y2="8.3" width="0.0001" layer="46"/>
<wire x1="1.75" y1="8.3" x2="0.25" y2="8.3" width="0.0001" layer="46"/>
<wire x1="0.25" y1="8.3" x2="0.25" y2="9.1" width="0.0001" layer="46"/>
<wire x1="-1.8" y1="-0.8" x2="-1.8" y2="2.7" width="0.127" layer="51"/>
<wire x1="-1.8" y1="2.7" x2="-1.8" y2="6.7" width="0.127" layer="51"/>
<wire x1="-1.8" y1="6.7" x2="-1.8" y2="9.2" width="0.127" layer="51"/>
<wire x1="-1.8" y1="9.2" x2="8.2" y2="9.2" width="0.127" layer="51"/>
<wire x1="8.2" y1="9.2" x2="8.2" y2="-0.8" width="0.127" layer="51"/>
<wire x1="8.2" y1="-0.8" x2="-1.8" y2="-0.8" width="0.127" layer="51"/>
<wire x1="-1.8" y1="-0.8" x2="-1.8" y2="2.7" width="0.127" layer="21"/>
<wire x1="-1.8" y1="2.7" x2="-1.8" y2="6.7" width="0.127" layer="21"/>
<wire x1="-1.8" y1="6.7" x2="-1.8" y2="9.2" width="0.127" layer="21"/>
<wire x1="-1.8" y1="9.2" x2="-0.5" y2="9.2" width="0.127" layer="21"/>
<wire x1="2.5" y1="9.2" x2="8.2" y2="9.2" width="0.127" layer="21"/>
<wire x1="8.2" y1="9.2" x2="8.2" y2="-0.8" width="0.127" layer="21"/>
<wire x1="8.2" y1="-0.8" x2="-1.8" y2="-0.8" width="0.127" layer="21"/>
<wire x1="-1.8" y1="6.7" x2="-3.8" y2="6.7" width="0.127" layer="21"/>
<wire x1="-3.8" y1="6.7" x2="-3.8" y2="2.7" width="0.127" layer="21"/>
<wire x1="-3.8" y1="2.7" x2="-1.8" y2="2.7" width="0.127" layer="21"/>
<wire x1="-1.8" y1="2.7" x2="-3.8" y2="2.7" width="0.127" layer="51"/>
<wire x1="-3.8" y1="2.7" x2="-3.8" y2="6.7" width="0.127" layer="51"/>
<wire x1="-3.8" y1="6.7" x2="-1.8" y2="6.7" width="0.127" layer="51"/>
<wire x1="-2.05" y1="9.55" x2="8.45" y2="9.55" width="0.05" layer="39"/>
<wire x1="8.45" y1="9.55" x2="8.45" y2="-1.05" width="0.05" layer="39"/>
<wire x1="8.45" y1="-1.05" x2="-2.05" y2="-1.05" width="0.05" layer="39"/>
<wire x1="-2.05" y1="-1.05" x2="-2.05" y2="2.45" width="0.05" layer="39"/>
<wire x1="-2.05" y1="2.45" x2="-4.05" y2="2.45" width="0.05" layer="39"/>
<wire x1="-4.05" y1="2.45" x2="-4.05" y2="6.95" width="0.05" layer="39"/>
<wire x1="-4.05" y1="6.95" x2="-2.05" y2="6.95" width="0.05" layer="39"/>
<wire x1="-2.05" y1="6.95" x2="-2.05" y2="9.55" width="0.05" layer="39"/>
<circle x="-0.122" y="-1.315" radius="0.1" width="0.2" layer="21"/>
<text x="-1.25541875" y="9.671659375" size="1.42515" layer="25">&gt;NAME</text>
<text x="-1.78046875" y="-3.08581875" size="1.42278125" layer="27">&gt;VALUE</text>
<circle x="-0.467" y="1.175" radius="0.1" width="0.2" layer="51"/>
<pad name="1" x="0" y="0" drill="0.8" diameter="1.2" shape="long"/>
<pad name="2" x="5.7" y="1.1" drill="0.8" diameter="1.2" shape="long"/>
<pad name="3" x="5.7" y="8.3" drill="0.8" diameter="1.2" shape="long" rot="R180"/>
<pad name="4" x="1" y="8.7" drill="0.8" diameter="1.2" shape="long"/>
<hole x="1.2" y="4.7" drill="1.6"/>
<hole x="6.2" y="4.7" drill="1.6"/>
</package>
<package name="CUI_SJ-43514">
<wire x1="-5.5" y1="4.7" x2="5.5" y2="4.7" width="0.127" layer="51"/>
<wire x1="5.5" y1="4.7" x2="5.5" y2="-4.3" width="0.127" layer="51"/>
<wire x1="-5.5" y1="4.7" x2="-5.5" y2="3" width="0.127" layer="51"/>
<wire x1="-5.5" y1="3" x2="-5.5" y2="2.25" width="0.127" layer="51"/>
<wire x1="-5.5" y1="2.25" x2="-4.2" y2="2.25" width="0.127" layer="51"/>
<wire x1="-4.2" y1="2.25" x2="-4.2" y2="-2.25" width="0.127" layer="51"/>
<wire x1="-4.2" y1="-2.25" x2="-5.5" y2="-2.25" width="0.127" layer="51"/>
<wire x1="-5.5" y1="-2.25" x2="-5.5" y2="-3" width="0.127" layer="51"/>
<wire x1="-5.5" y1="-3" x2="-5.5" y2="-4.3" width="0.127" layer="51"/>
<wire x1="-5.5" y1="-4.3" x2="5.5" y2="-4.3" width="0.127" layer="51"/>
<wire x1="-5.5" y1="3" x2="-8.5" y2="3" width="0.127" layer="51"/>
<wire x1="-8.5" y1="3" x2="-8.5" y2="-3" width="0.127" layer="51"/>
<wire x1="-8.5" y1="-3" x2="-5.5" y2="-3" width="0.127" layer="51"/>
<wire x1="-3.8" y1="4.7" x2="-5.5" y2="4.7" width="0.127" layer="21"/>
<wire x1="-5.5" y1="4.7" x2="-5.5" y2="3" width="0.127" layer="21"/>
<wire x1="-5.5" y1="3" x2="-5.5" y2="2.25" width="0.127" layer="21"/>
<wire x1="-5.5" y1="2.25" x2="-4.2" y2="2.25" width="0.127" layer="21"/>
<wire x1="-4.2" y1="2.25" x2="-4.2" y2="-2.25" width="0.127" layer="21"/>
<wire x1="-4.2" y1="-2.25" x2="-5.5" y2="-2.25" width="0.127" layer="21"/>
<wire x1="-5.5" y1="-2.25" x2="-5.5" y2="-3" width="0.127" layer="21"/>
<wire x1="-5.5" y1="-3" x2="-5.5" y2="-4.3" width="0.127" layer="21"/>
<wire x1="-5.5" y1="-4.3" x2="-3.75" y2="-4.3" width="0.127" layer="21"/>
<wire x1="-5.5" y1="-3" x2="-8.5" y2="-3" width="0.127" layer="21"/>
<wire x1="-8.5" y1="-3" x2="-8.5" y2="3" width="0.127" layer="21"/>
<wire x1="-8.5" y1="3" x2="-5.5" y2="3" width="0.127" layer="21"/>
<wire x1="-1.4" y1="4.7" x2="5.5" y2="4.7" width="0.127" layer="21"/>
<wire x1="5.5" y1="4.7" x2="5.5" y2="2.7" width="0.127" layer="21"/>
<wire x1="5.5" y1="0.35" x2="5.5" y2="-4.3" width="0.127" layer="21"/>
<wire x1="5.5" y1="-4.3" x2="3.4" y2="-4.3" width="0.127" layer="21"/>
<wire x1="1.5" y1="-4.3" x2="-1.55" y2="-4.3" width="0.127" layer="21"/>
<wire x1="-5.5" y1="8.35" x2="-5.5" y2="2.25" width="0.0001" layer="46"/>
<wire x1="-5.5" y1="2.25" x2="-4.2" y2="2.25" width="0.0001" layer="46"/>
<wire x1="-4.2" y1="2.25" x2="-4.2" y2="-2.25" width="0.0001" layer="46"/>
<wire x1="-4.2" y1="-2.25" x2="-5.5" y2="-2.25" width="0.0001" layer="46"/>
<wire x1="-5.5" y1="-2.25" x2="-5.5" y2="-8.85" width="0.0001" layer="46"/>
<wire x1="-8.75" y1="3.25" x2="-5.75" y2="3.25" width="0.05" layer="39"/>
<wire x1="-5.75" y1="3.25" x2="-5.75" y2="5" width="0.05" layer="39"/>
<wire x1="-5.75" y1="5" x2="-3.65" y2="5" width="0.05" layer="39"/>
<wire x1="-3.65" y1="5" x2="-3.65" y2="5.85" width="0.05" layer="39"/>
<wire x1="-3.65" y1="5.85" x2="-1.5" y2="5.85" width="0.05" layer="39"/>
<wire x1="-1.5" y1="5.85" x2="-1.5" y2="5" width="0.05" layer="39"/>
<wire x1="-1.5" y1="5" x2="5.75" y2="5" width="0.05" layer="39"/>
<wire x1="5.75" y1="5" x2="5.75" y2="2.5" width="0.05" layer="39"/>
<wire x1="5.75" y1="2.5" x2="6.5" y2="2.5" width="0.05" layer="39"/>
<wire x1="6.5" y1="2.5" x2="6.5" y2="0.5" width="0.05" layer="39"/>
<wire x1="6.5" y1="0.5" x2="5.75" y2="0.5" width="0.05" layer="39"/>
<wire x1="5.75" y1="0.5" x2="5.75" y2="-4.75" width="0.05" layer="39"/>
<wire x1="5.75" y1="-4.75" x2="-1.5" y2="-4.75" width="0.05" layer="39"/>
<wire x1="-1.5" y1="-4.75" x2="-1.5" y2="-5.55" width="0.05" layer="39"/>
<wire x1="-1.5" y1="-5.55" x2="-3.75" y2="-5.55" width="0.05" layer="39"/>
<wire x1="-3.75" y1="-5.55" x2="-3.75" y2="-4.5" width="0.05" layer="39"/>
<wire x1="-3.75" y1="-4.5" x2="-5.75" y2="-4.5" width="0.05" layer="39"/>
<wire x1="-5.75" y1="-4.5" x2="-5.75" y2="-3.25" width="0.05" layer="39"/>
<wire x1="-5.75" y1="-3.25" x2="-8.75" y2="-3.25" width="0.05" layer="39"/>
<wire x1="-8.75" y1="-3.25" x2="-8.75" y2="3.25" width="0.05" layer="39"/>
<text x="-5.75331875" y="-8.5049" size="0.609953125" layer="51" rot="R90">PCB EDGE</text>
<circle x="-4" y="5.5" radius="0.2" width="0.4" layer="21"/>
<text x="-4.5056" y="6.508090625" size="0.610359375" layer="25">&gt;NAME</text>
<text x="-4.75835" y="-6.51143125" size="0.610671875" layer="27">&gt;VALUE</text>
<pad name="1" x="-2.6" y="4.8" drill="1.1" shape="square"/>
<pad name="2" x="2.4" y="-3.6" drill="1.1"/>
<pad name="3" x="5.5" y="1.6" drill="1.1"/>
<pad name="4" x="-2.6" y="-4.5" drill="1.1"/>
<hole x="-2.6" y="0" drill="1.1"/>
<hole x="2.4" y="0" drill="1.1"/>
</package>
</packages>
</library>
<library name="con-molex" urn="urn:adsk.eagle:library:165">
<description>&lt;b&gt;Molex Connectors&lt;/b&gt;&lt;p&gt;
&lt;author&gt;Created by librarian@cadsoft.de&lt;/author&gt;</description>
<packages>
<package name="53047-08" urn="urn:adsk.eagle:footprint:8078146/1" library_version="5">
<description>&lt;b&gt;1.25mm Pitch PicoBlade™ Wire-to-Board Header, Vertical, with Friction Lock, 8 Circuits&lt;/b&gt;&lt;p&gt;&lt;a href =http://www.molex.com/pdm_docs/sd/530470810_sd.pdf&gt;Datasheet &lt;/a&gt;</description>
<wire x1="-5.775" y1="-1.5" x2="5.775" y2="-1.5" width="0.2032" layer="21"/>
<wire x1="5.775" y1="-1.5" x2="5.775" y2="1.5" width="0.2032" layer="21"/>
<wire x1="5.775" y1="1.5" x2="-5.775" y2="1.5" width="0.2032" layer="21"/>
<wire x1="-5.775" y1="1.5" x2="-5.775" y2="-1.5" width="0.2032" layer="21"/>
<wire x1="-5.75" y1="-0.25" x2="-5.375" y2="-0.25" width="0.0508" layer="21"/>
<wire x1="-5.375" y1="-0.25" x2="-5.375" y2="-1.25" width="0.0508" layer="21"/>
<wire x1="5.375" y1="-0.25" x2="5.75" y2="-0.25" width="0.0508" layer="21"/>
<wire x1="5.375" y1="-0.25" x2="5.375" y2="-1.25" width="0.0508" layer="21"/>
<wire x1="-5.75" y1="0.375" x2="-5.375" y2="0.375" width="0.0508" layer="21"/>
<wire x1="5.375" y1="0.375" x2="5.75" y2="0.375" width="0.0508" layer="21"/>
<wire x1="-5.375" y1="0.375" x2="-5.375" y2="1.125" width="0.0508" layer="21"/>
<wire x1="-5.375" y1="1.125" x2="5.375" y2="1.125" width="0.0508" layer="21"/>
<wire x1="5.375" y1="1.125" x2="5.375" y2="0.375" width="0.0508" layer="21"/>
<wire x1="5.375" y1="1.125" x2="5.625" y2="1.375" width="0.0508" layer="21"/>
<wire x1="-5.375" y1="1.125" x2="-5.625" y2="1.375" width="0.0508" layer="21"/>
<pad name="1" x="4.375" y="0.45" drill="0.5" diameter="0.6984" shape="long" rot="R90"/>
<pad name="2" x="3.125" y="0.45" drill="0.5" diameter="0.6984" shape="long" rot="R90"/>
<pad name="3" x="1.875" y="0.45" drill="0.5" diameter="0.6984" shape="long" rot="R90"/>
<pad name="4" x="0.625" y="0.45" drill="0.5" diameter="0.6984" shape="long" rot="R90"/>
<pad name="5" x="-0.625" y="0.45" drill="0.5" diameter="0.6984" shape="long" rot="R90"/>
<pad name="6" x="-1.875" y="0.45" drill="0.5" diameter="0.6984" shape="long" rot="R90"/>
<pad name="7" x="-3.125" y="0.45" drill="0.5" diameter="0.6984" shape="long" rot="R90"/>
<pad name="8" x="-4.375" y="0.45" drill="0.5" diameter="0.6984" shape="long" rot="R90"/>
<text x="-5.625" y="1.75" size="1.27" layer="25">&gt;NAME</text>
<text x="1.125" y="1.75" size="1.27" layer="27">&gt;VALUE</text>
<rectangle x1="-5.75" y1="-1.5" x2="5.75" y2="-1.125" layer="21"/>
</package>
</packages>
<packages3d>
<package3d name="53047-08" urn="urn:adsk.eagle:package:8078517/1" type="box" library_version="5">
<description>&lt;b&gt;1.25mm Pitch PicoBlade™ Wire-to-Board Header, Vertical, with Friction Lock, 8 Circuits&lt;/b&gt;&lt;p&gt;&lt;a href =http://www.molex.com/pdm_docs/sd/530470810_sd.pdf&gt;Datasheet &lt;/a&gt;</description>
<packageinstances>
<packageinstance name="53047-08"/>
</packageinstances>
</package3d>
</packages3d>
</library>
</libraries>
<attributes>
</attributes>
<variantdefs>
</variantdefs>
<classes>
<class number="0" name="default" width="0.3048" drill="0.508">
<clearance class="0" value="0.254"/>
</class>
</classes>
<designrules name="default *">
<description language="de">&lt;b&gt;EAGLE Design Rules&lt;/b&gt;
&lt;p&gt;
Die Standard-Design-Rules sind so gewählt, dass sie für 
die meisten Anwendungen passen. Sollte ihre Platine 
besondere Anforderungen haben, treffen Sie die erforderlichen
Einstellungen hier und speichern die Design Rules unter 
einem neuen Namen ab.</description>
<description language="en">&lt;b&gt;EAGLE Design Rules&lt;/b&gt;
&lt;p&gt;
The default Design Rules have been set to cover
a wide range of applications. Your particular design
may have different requirements, so please make the
necessary adjustments and save your customized
design rules under a new name.</description>
<param name="layerSetup" value="(1*16)"/>
<param name="mtCopper" value="0.035mm 0.035mm 0.035mm 0.035mm 0.035mm 0.035mm 0.035mm 0.035mm 0.035mm 0.035mm 0.035mm 0.035mm 0.035mm 0.035mm 0.035mm 0.035mm"/>
<param name="mtIsolate" value="1.5mm 0.15mm 0.2mm 0.15mm 0.2mm 0.15mm 0.2mm 0.15mm 0.2mm 0.15mm 0.2mm 0.15mm 0.2mm 0.15mm 0.2mm"/>
<param name="mdWireWire" value="6mil"/>
<param name="mdWirePad" value="6mil"/>
<param name="mdWireVia" value="6mil"/>
<param name="mdPadPad" value="6mil"/>
<param name="mdPadVia" value="6mil"/>
<param name="mdViaVia" value="6mil"/>
<param name="mdSmdPad" value="6mil"/>
<param name="mdSmdVia" value="6mil"/>
<param name="mdSmdSmd" value="6mil"/>
<param name="mdViaViaSameLayer" value="6mil"/>
<param name="mnLayersViaInSmd" value="2"/>
<param name="mdCopperDimension" value="40mil"/>
<param name="mdDrill" value="6mil"/>
<param name="mdSmdStop" value="0mil"/>
<param name="msWidth" value="6mil"/>
<param name="msDrill" value="0.35mm"/>
<param name="msMicroVia" value="9.99mm"/>
<param name="msBlindViaRatio" value="0.5"/>
<param name="rvPadTop" value="0.25"/>
<param name="rvPadInner" value="0.25"/>
<param name="rvPadBottom" value="0.25"/>
<param name="rvViaOuter" value="0.25"/>
<param name="rvViaInner" value="0.25"/>
<param name="rvMicroViaOuter" value="0.25"/>
<param name="rvMicroViaInner" value="0.25"/>
<param name="rlMinPadTop" value="10mil"/>
<param name="rlMaxPadTop" value="20mil"/>
<param name="rlMinPadInner" value="10mil"/>
<param name="rlMaxPadInner" value="20mil"/>
<param name="rlMinPadBottom" value="10mil"/>
<param name="rlMaxPadBottom" value="20mil"/>
<param name="rlMinViaOuter" value="8mil"/>
<param name="rlMaxViaOuter" value="20mil"/>
<param name="rlMinViaInner" value="8mil"/>
<param name="rlMaxViaInner" value="20mil"/>
<param name="rlMinMicroViaOuter" value="4mil"/>
<param name="rlMaxMicroViaOuter" value="20mil"/>
<param name="rlMinMicroViaInner" value="4mil"/>
<param name="rlMaxMicroViaInner" value="20mil"/>
<param name="psTop" value="-1"/>
<param name="psBottom" value="-1"/>
<param name="psFirst" value="-1"/>
<param name="psElongationLong" value="75"/>
<param name="psElongationOffset" value="100"/>
<param name="mvStopFrame" value="1"/>
<param name="mvCreamFrame" value="0"/>
<param name="mlMinStopFrame" value="4mil"/>
<param name="mlMaxStopFrame" value="4mil"/>
<param name="mlMinCreamFrame" value="0mil"/>
<param name="mlMaxCreamFrame" value="0mil"/>
<param name="mlViaStopLimit" value="0mil"/>
<param name="srRoundness" value="0"/>
<param name="srMinRoundness" value="0mil"/>
<param name="srMaxRoundness" value="0mil"/>
<param name="slThermalIsolate" value="10mil"/>
<param name="slThermalsForVias" value="0"/>
<param name="dpMaxLengthDifference" value="10mm"/>
<param name="dpGapFactor" value="2.5"/>
<param name="checkAngle" value="0"/>
<param name="checkFont" value="1"/>
<param name="checkRestrict" value="1"/>
<param name="checkStop" value="0"/>
<param name="checkValues" value="0"/>
<param name="checkNames" value="1"/>
<param name="checkWireStubs" value="1"/>
<param name="checkPolygonWidth" value="0"/>
<param name="useDiameter" value="15"/>
<param name="maxErrors" value="50"/>
</designrules>
<autorouter>
<pass name="Default">
<param name="RoutingGrid" value="6.25mil"/>
<param name="AutoGrid" value="1"/>
<param name="Efforts" value="2"/>
<param name="TopRouterVariant" value="1"/>
<param name="tpViaShape" value="round"/>
<param name="PrefDir.1" value="-"/>
<param name="PrefDir.2" value="0"/>
<param name="PrefDir.3" value="0"/>
<param name="PrefDir.4" value="0"/>
<param name="PrefDir.5" value="0"/>
<param name="PrefDir.6" value="0"/>
<param name="PrefDir.7" value="0"/>
<param name="PrefDir.8" value="0"/>
<param name="PrefDir.9" value="0"/>
<param name="PrefDir.10" value="0"/>
<param name="PrefDir.11" value="0"/>
<param name="PrefDir.12" value="0"/>
<param name="PrefDir.13" value="0"/>
<param name="PrefDir.14" value="0"/>
<param name="PrefDir.15" value="0"/>
<param name="PrefDir.16" value="|"/>
<param name="cfVia" value="8"/>
<param name="cfNonPref" value="5"/>
<param name="cfChangeDir" value="2"/>
<param name="cfOrthStep" value="2"/>
<param name="cfDiagStep" value="3"/>
<param name="cfExtdStep" value="0"/>
<param name="cfBonusStep" value="1"/>
<param name="cfMalusStep" value="1"/>
<param name="cfPadImpact" value="4"/>
<param name="cfSmdImpact" value="4"/>
<param name="cfBusImpact" value="0"/>
<param name="cfHugging" value="3"/>
<param name="cfAvoid" value="4"/>
<param name="cfPolygon" value="10"/>
<param name="cfBase.1" value="0"/>
<param name="cfBase.2" value="1"/>
<param name="cfBase.3" value="1"/>
<param name="cfBase.4" value="1"/>
<param name="cfBase.5" value="1"/>
<param name="cfBase.6" value="1"/>
<param name="cfBase.7" value="1"/>
<param name="cfBase.8" value="1"/>
<param name="cfBase.9" value="1"/>
<param name="cfBase.10" value="1"/>
<param name="cfBase.11" value="1"/>
<param name="cfBase.12" value="1"/>
<param name="cfBase.13" value="1"/>
<param name="cfBase.14" value="1"/>
<param name="cfBase.15" value="1"/>
<param name="cfBase.16" value="0"/>
<param name="mnVias" value="20"/>
<param name="mnSegments" value="9999"/>
<param name="mnExtdSteps" value="9999"/>
<param name="mnRipupLevel" value="10"/>
<param name="mnRipupSteps" value="100"/>
<param name="mnRipupTotal" value="100"/>
</pass>
<pass name="Follow-me" refer="Default" active="yes">
</pass>
<pass name="Busses" refer="Default" active="yes">
<param name="cfNonPref" value="4"/>
<param name="cfBusImpact" value="4"/>
<param name="cfHugging" value="0"/>
<param name="mnVias" value="0"/>
</pass>
<pass name="Route" refer="Default" active="yes">
</pass>
<pass name="Optimize1" refer="Default" active="yes">
<param name="cfVia" value="99"/>
<param name="cfExtdStep" value="10"/>
<param name="cfHugging" value="1"/>
<param name="mnExtdSteps" value="1"/>
<param name="mnRipupLevel" value="0"/>
</pass>
<pass name="Optimize2" refer="Optimize1" active="yes">
<param name="cfNonPref" value="0"/>
<param name="cfChangeDir" value="6"/>
<param name="cfExtdStep" value="0"/>
<param name="cfBonusStep" value="2"/>
<param name="cfMalusStep" value="2"/>
<param name="cfPadImpact" value="2"/>
<param name="cfSmdImpact" value="2"/>
<param name="cfHugging" value="0"/>
</pass>
<pass name="Optimize3" refer="Optimize2" active="yes">
<param name="cfChangeDir" value="8"/>
<param name="cfPadImpact" value="0"/>
<param name="cfSmdImpact" value="0"/>
</pass>
<pass name="Optimize4" refer="Optimize3" active="yes">
<param name="cfChangeDir" value="25"/>
</pass>
</autorouter>
<elements>
<element name="2.5MM_JACK" library="SnapEDA-Library" package="CUI_SJ1-42514" value="SJ1-42514" x="2.54" y="3.97" smashed="yes">
<attribute name="MANUFACTURER" value="CUI Inc" x="2.54" y="3.97" size="1.778" layer="27" display="off"/>
<attribute name="NAME" x="11.64958125" y="5.641659375" size="0.6096" layer="25" rot="R90"/>
<attribute name="PART_REV" value="1.01" x="2.54" y="3.97" size="1.778" layer="27" display="off"/>
<attribute name="STANDARD" value="Manufacturer Recommendation" x="2.54" y="3.97" size="1.778" layer="27" display="off"/>
<attribute name="VALUE" x="0.75953125" y="0.88418125" size="1.42278125" layer="27"/>
</element>
<element name="3.5MM_JACK" library="SnapEDA-Library" package="CUI_SJ-43514" value="SJ-43514" x="5.461" y="19.445" smashed="yes">
<attribute name="MANUFACTURER" value="CUI INC" x="5.461" y="19.445" size="1.778" layer="27" display="off"/>
<attribute name="NAME" x="11.9554" y="14.953090625" size="0.610359375" layer="25" rot="R90"/>
<attribute name="PART_REV" value="1.04 " x="5.461" y="19.445" size="1.778" layer="27" display="off"/>
<attribute name="STANDARD" value="MANUFACTURER RECOMMENDATIONS" x="5.461" y="19.445" size="1.778" layer="27" display="off"/>
<attribute name="VALUE" x="0.70265" y="12.93356875" size="0.610671875" layer="27"/>
</element>
<element name="MOLEX" library="con-molex" library_urn="urn:adsk.eagle:library:165" package="53047-08" package3d_urn="urn:adsk.eagle:package:8078517/1" value="53047-08" x="16.002" y="18.984" smashed="yes" rot="R90">
<attribute name="MF" value="MOLEX" x="16.002" y="18.984" size="1.778" layer="27" rot="R90" display="off"/>
<attribute name="MPN" value="53047-0810" x="16.002" y="18.984" size="1.778" layer="27" rot="R90" display="off"/>
<attribute name="NAME" x="14.252" y="13.359" size="1.27" layer="25" rot="R90"/>
<attribute name="OC_FARNELL" value="1012258" x="16.002" y="18.984" size="1.778" layer="27" rot="R90" display="off"/>
<attribute name="OC_NEWARK" value="98K9826" x="16.002" y="18.984" size="1.778" layer="27" rot="R90" display="off"/>
<attribute name="POPULARITY" value="0" x="16.002" y="18.984" size="1.778" layer="27" rot="R90" display="off"/>
<attribute name="VALUE" x="14.252" y="20.109" size="1.27" layer="27" rot="R90"/>
</element>
</elements>
<signals>
<signal name="GND">
<polygon width="0.3048" layer="16">
<vertex x="0" y="35.4"/>
<vertex x="0" y="0"/>
<vertex x="17.78" y="0"/>
<vertex x="17.78" y="35.4"/>
</polygon>
<polygon width="0.3048" layer="1">
<vertex x="0" y="35.4"/>
<vertex x="0" y="0"/>
<vertex x="17.78" y="0"/>
<vertex x="17.78" y="35.4"/>
</polygon>
<contactref element="2.5MM_JACK" pad="1"/>
<contactref element="MOLEX" pad="5"/>
<contactref element="3.5MM_JACK" pad="1"/>
<contactref element="MOLEX" pad="1"/>
</signal>
<signal name="+5V">
<contactref element="3.5MM_JACK" pad="2"/>
<contactref element="MOLEX" pad="4"/>
<wire x1="7.861" y1="15.845" x2="8.7292" y2="16.7132" width="0.3048" layer="1"/>
<wire x1="8.7292" y1="16.7132" x2="9.62946875" y2="16.7132" width="0.3048" layer="1"/>
<wire x1="12.52526875" y1="19.609" x2="15.552" y2="19.609" width="0.3048" layer="1"/>
<wire x1="9.62946875" y1="16.7132" x2="12.52526875" y2="19.609" width="0.3048" layer="1"/>
</signal>
<signal name="SENSOR_SIG1">
<contactref element="3.5MM_JACK" pad="3"/>
<contactref element="MOLEX" pad="2"/>
<wire x1="15.552" y1="22.109" x2="12.025" y2="22.109" width="0.3048" layer="1"/>
<wire x1="12.025" y1="22.109" x2="10.961" y2="21.045" width="0.3048" layer="1"/>
</signal>
<signal name="SENSOR_SIG2">
<contactref element="3.5MM_JACK" pad="4"/>
<contactref element="MOLEX" pad="3"/>
<wire x1="15.552" y1="20.859" x2="12.985" y2="20.859" width="0.3048" layer="1"/>
<wire x1="5.188" y1="17.272" x2="2.861" y2="14.945" width="0.3048" layer="1"/>
<wire x1="12.985" y1="20.859" x2="9.398" y2="17.272" width="0.3048" layer="1"/>
<wire x1="9.398" y1="17.272" x2="5.188" y2="17.272" width="0.3048" layer="1"/>
</signal>
<signal name="LED2_SIG">
<contactref element="2.5MM_JACK" pad="4"/>
<contactref element="MOLEX" pad="7"/>
<wire x1="3.54" y1="12.67" x2="5.288" y2="10.922" width="0.3048" layer="1"/>
<wire x1="14.335" y1="15.859" x2="15.552" y2="15.859" width="0.3048" layer="1"/>
<wire x1="5.288" y1="10.922" x2="9.398" y2="10.922" width="0.3048" layer="1"/>
<wire x1="9.398" y1="10.922" x2="14.335" y2="15.859" width="0.3048" layer="1"/>
</signal>
<signal name="LED1_SIG">
<contactref element="2.5MM_JACK" pad="3"/>
<contactref element="MOLEX" pad="6"/>
<wire x1="8.24" y1="12.27" x2="13.079" y2="17.109" width="0.3048" layer="1"/>
<wire x1="13.079" y1="17.109" x2="15.552" y2="17.109" width="0.3048" layer="1"/>
</signal>
<signal name="N$2">
<contactref element="2.5MM_JACK" pad="2"/>
<contactref element="MOLEX" pad="8"/>
<wire x1="8.24" y1="5.07" x2="15.552" y2="12.382" width="0.3048" layer="1"/>
<wire x1="15.552" y1="12.382" x2="15.552" y2="14.609" width="0.3048" layer="1"/>
</signal>
</signals>
<mfgpreviewcolors>
<mfgpreviewcolor name="soldermaskcolor" color="0xC8008000"/>
<mfgpreviewcolor name="silkscreencolor" color="0xFFFEFEFE"/>
<mfgpreviewcolor name="backgroundcolor" color="0xFF282828"/>
<mfgpreviewcolor name="coppercolor" color="0xFFFFBF00"/>
<mfgpreviewcolor name="substratecolor" color="0xFF786E46"/>
</mfgpreviewcolors>
</board>
</drawing>
<compatibility>
<note version="8.2" severity="warning">
Since Version 8.2, EAGLE supports online libraries. The ids
of those online libraries will not be understood (or retained)
with this version.
</note>
<note version="8.3" severity="warning">
Since Version 8.3, EAGLE supports URNs for individual library
assets (packages, symbols, and devices). The URNs of those assets
will not be understood (or retained) with this version.
</note>
<note version="8.3" severity="warning">
Since Version 8.3, EAGLE supports the association of 3D packages
with devices in libraries, schematics, and board files. Those 3D
packages will not be understood (or retained) with this version.
</note>
</compatibility>
</eagle>
