<?xml version="1.0" encoding="utf-8"?>
<!DOCTYPE eagle SYSTEM "eagle.dtd">
<eagle version="9.5.2">
<drawing>
<settings>
<setting alwaysvectorfont="no"/>
<setting verticaltext="up"/>
</settings>
<grid distance="0.1" unitdist="inch" unit="inch" style="lines" multiple="1" display="no" altdistance="0.01" altunitdist="inch" altunit="inch"/>
<layers>
<layer number="1" name="Top" color="4" fill="1" visible="no" active="no"/>
<layer number="2" name="Route2" color="1" fill="3" visible="no" active="no"/>
<layer number="3" name="Route3" color="4" fill="3" visible="no" active="no"/>
<layer number="4" name="Route4" color="1" fill="4" visible="no" active="no"/>
<layer number="5" name="Route5" color="4" fill="4" visible="no" active="no"/>
<layer number="6" name="Route6" color="1" fill="8" visible="no" active="no"/>
<layer number="7" name="Route7" color="4" fill="8" visible="no" active="no"/>
<layer number="8" name="Route8" color="1" fill="2" visible="no" active="no"/>
<layer number="9" name="Route9" color="4" fill="2" visible="no" active="no"/>
<layer number="10" name="Route10" color="1" fill="7" visible="no" active="no"/>
<layer number="11" name="Route11" color="4" fill="7" visible="no" active="no"/>
<layer number="12" name="Route12" color="1" fill="5" visible="no" active="no"/>
<layer number="13" name="Route13" color="4" fill="5" visible="no" active="no"/>
<layer number="14" name="Route14" color="1" fill="6" visible="no" active="no"/>
<layer number="15" name="Route15" color="4" fill="6" visible="no" active="no"/>
<layer number="16" name="Bottom" color="1" fill="1" visible="no" active="no"/>
<layer number="17" name="Pads" color="2" fill="1" visible="no" active="no"/>
<layer number="18" name="Vias" color="2" fill="1" visible="no" active="no"/>
<layer number="19" name="Unrouted" color="6" fill="1" visible="no" active="no"/>
<layer number="20" name="Dimension" color="15" fill="1" visible="no" active="no"/>
<layer number="21" name="tPlace" color="7" fill="1" visible="no" active="no"/>
<layer number="22" name="bPlace" color="7" fill="1" visible="no" active="no"/>
<layer number="23" name="tOrigins" color="15" fill="1" visible="no" active="no"/>
<layer number="24" name="bOrigins" color="15" fill="1" visible="no" active="no"/>
<layer number="25" name="tNames" color="7" fill="1" visible="no" active="no"/>
<layer number="26" name="bNames" color="7" fill="1" visible="no" active="no"/>
<layer number="27" name="tValues" color="7" fill="1" visible="no" active="no"/>
<layer number="28" name="bValues" color="7" fill="1" visible="no" active="no"/>
<layer number="29" name="tStop" color="7" fill="3" visible="no" active="no"/>
<layer number="30" name="bStop" color="7" fill="6" visible="no" active="no"/>
<layer number="31" name="tCream" color="7" fill="4" visible="no" active="no"/>
<layer number="32" name="bCream" color="7" fill="5" visible="no" active="no"/>
<layer number="33" name="tFinish" color="6" fill="3" visible="no" active="no"/>
<layer number="34" name="bFinish" color="6" fill="6" visible="no" active="no"/>
<layer number="35" name="tGlue" color="7" fill="4" visible="no" active="no"/>
<layer number="36" name="bGlue" color="7" fill="5" visible="no" active="no"/>
<layer number="37" name="tTest" color="7" fill="1" visible="no" active="no"/>
<layer number="38" name="bTest" color="7" fill="1" visible="no" active="no"/>
<layer number="39" name="tKeepout" color="4" fill="11" visible="no" active="no"/>
<layer number="40" name="bKeepout" color="1" fill="11" visible="no" active="no"/>
<layer number="41" name="tRestrict" color="4" fill="10" visible="no" active="no"/>
<layer number="42" name="bRestrict" color="1" fill="10" visible="no" active="no"/>
<layer number="43" name="vRestrict" color="2" fill="10" visible="no" active="no"/>
<layer number="44" name="Drills" color="7" fill="1" visible="no" active="no"/>
<layer number="45" name="Holes" color="7" fill="1" visible="no" active="no"/>
<layer number="46" name="Milling" color="3" fill="1" visible="no" active="no"/>
<layer number="47" name="Measures" color="7" fill="1" visible="no" active="no"/>
<layer number="48" name="Document" color="7" fill="1" visible="no" active="no"/>
<layer number="49" name="Reference" color="7" fill="1" visible="no" active="no"/>
<layer number="50" name="dxf" color="7" fill="1" visible="no" active="no"/>
<layer number="51" name="tDocu" color="7" fill="1" visible="no" active="no"/>
<layer number="52" name="bDocu" color="7" fill="1" visible="no" active="no"/>
<layer number="53" name="tGND_GNDA" color="7" fill="9" visible="no" active="no"/>
<layer number="54" name="bGND_GNDA" color="1" fill="9" visible="no" active="no"/>
<layer number="56" name="wert" color="7" fill="1" visible="no" active="no"/>
<layer number="57" name="tCAD" color="7" fill="1" visible="no" active="no"/>
<layer number="59" name="tCarbon" color="7" fill="1" visible="no" active="no"/>
<layer number="60" name="bCarbon" color="7" fill="1" visible="no" active="no"/>
<layer number="88" name="SimResults" color="9" fill="1" visible="yes" active="yes"/>
<layer number="89" name="SimProbes" color="9" fill="1" visible="yes" active="yes"/>
<layer number="90" name="Modules" color="5" fill="1" visible="yes" active="yes"/>
<layer number="91" name="Nets" color="2" fill="1" visible="yes" active="yes"/>
<layer number="92" name="Busses" color="1" fill="1" visible="yes" active="yes"/>
<layer number="93" name="Pins" color="2" fill="1" visible="no" active="yes"/>
<layer number="94" name="Symbols" color="4" fill="1" visible="yes" active="yes"/>
<layer number="95" name="Names" color="7" fill="1" visible="yes" active="yes"/>
<layer number="96" name="Values" color="7" fill="1" visible="yes" active="yes"/>
<layer number="97" name="Info" color="7" fill="1" visible="yes" active="yes"/>
<layer number="98" name="Guide" color="6" fill="1" visible="yes" active="yes"/>
<layer number="99" name="SpiceOrder" color="7" fill="1" visible="no" active="no"/>
<layer number="100" name="Muster" color="7" fill="1" visible="no" active="no"/>
<layer number="101" name="Patch_Top" color="12" fill="4" visible="no" active="yes"/>
<layer number="102" name="Vscore" color="7" fill="1" visible="no" active="yes"/>
<layer number="103" name="fp3" color="7" fill="1" visible="no" active="yes"/>
<layer number="104" name="Name" color="7" fill="1" visible="no" active="yes"/>
<layer number="105" name="Beschreib" color="9" fill="1" visible="no" active="yes"/>
<layer number="106" name="BGA-Top" color="4" fill="1" visible="no" active="yes"/>
<layer number="107" name="BD-Top" color="5" fill="1" visible="no" active="yes"/>
<layer number="108" name="fp8" color="7" fill="1" visible="no" active="yes"/>
<layer number="109" name="fp9" color="7" fill="1" visible="no" active="yes"/>
<layer number="110" name="fp0" color="7" fill="1" visible="no" active="yes"/>
<layer number="111" name="LPC17xx" color="7" fill="1" visible="no" active="yes"/>
<layer number="112" name="tSilk" color="7" fill="1" visible="no" active="yes"/>
<layer number="113" name="ReferenceLS" color="7" fill="1" visible="no" active="no"/>
<layer number="116" name="Patch_BOT" color="9" fill="4" visible="no" active="yes"/>
<layer number="118" name="Rect_Pads" color="7" fill="1" visible="no" active="no"/>
<layer number="121" name="_tsilk" color="7" fill="1" visible="no" active="yes"/>
<layer number="122" name="_bsilk" color="7" fill="1" visible="no" active="yes"/>
<layer number="123" name="tTestmark" color="7" fill="1" visible="no" active="yes"/>
<layer number="124" name="bTestmark" color="7" fill="1" visible="no" active="yes"/>
<layer number="125" name="_tNames" color="7" fill="1" visible="no" active="yes"/>
<layer number="126" name="_bNames" color="7" fill="1" visible="no" active="yes"/>
<layer number="127" name="_tValues" color="7" fill="1" visible="no" active="yes"/>
<layer number="128" name="_bValues" color="7" fill="1" visible="no" active="yes"/>
<layer number="129" name="Mask" color="7" fill="1" visible="yes" active="yes"/>
<layer number="131" name="tAdjust" color="7" fill="1" visible="no" active="yes"/>
<layer number="132" name="bAdjust" color="7" fill="1" visible="no" active="yes"/>
<layer number="144" name="Drill_legend" color="7" fill="1" visible="no" active="yes"/>
<layer number="150" name="Notes" color="7" fill="1" visible="no" active="yes"/>
<layer number="151" name="HeatSink" color="7" fill="1" visible="no" active="yes"/>
<layer number="152" name="_bDocu" color="7" fill="1" visible="no" active="yes"/>
<layer number="153" name="FabDoc1" color="6" fill="1" visible="no" active="no"/>
<layer number="154" name="FabDoc2" color="2" fill="1" visible="no" active="no"/>
<layer number="155" name="FabDoc3" color="7" fill="15" visible="no" active="no"/>
<layer number="199" name="Contour" color="7" fill="1" visible="no" active="yes"/>
<layer number="200" name="200bmp" color="1" fill="10" visible="no" active="yes"/>
<layer number="201" name="201bmp" color="2" fill="1" visible="no" active="no"/>
<layer number="202" name="202bmp" color="3" fill="1" visible="no" active="no"/>
<layer number="203" name="203bmp" color="4" fill="10" visible="no" active="yes"/>
<layer number="204" name="204bmp" color="5" fill="10" visible="no" active="yes"/>
<layer number="205" name="205bmp" color="6" fill="10" visible="no" active="yes"/>
<layer number="206" name="206bmp" color="7" fill="10" visible="no" active="yes"/>
<layer number="207" name="207bmp" color="8" fill="10" visible="no" active="yes"/>
<layer number="208" name="208bmp" color="9" fill="10" visible="no" active="yes"/>
<layer number="209" name="209bmp" color="7" fill="1" visible="no" active="yes"/>
<layer number="210" name="210bmp" color="7" fill="1" visible="no" active="yes"/>
<layer number="211" name="211bmp" color="7" fill="1" visible="no" active="yes"/>
<layer number="212" name="212bmp" color="7" fill="1" visible="no" active="yes"/>
<layer number="213" name="213bmp" color="7" fill="1" visible="no" active="yes"/>
<layer number="214" name="214bmp" color="7" fill="1" visible="no" active="yes"/>
<layer number="215" name="215bmp" color="7" fill="1" visible="no" active="yes"/>
<layer number="216" name="216bmp" color="7" fill="1" visible="no" active="yes"/>
<layer number="217" name="217bmp" color="18" fill="1" visible="no" active="no"/>
<layer number="218" name="218bmp" color="19" fill="1" visible="no" active="no"/>
<layer number="219" name="219bmp" color="20" fill="1" visible="no" active="no"/>
<layer number="220" name="220bmp" color="21" fill="1" visible="no" active="no"/>
<layer number="221" name="221bmp" color="22" fill="1" visible="no" active="no"/>
<layer number="222" name="222bmp" color="23" fill="1" visible="no" active="no"/>
<layer number="223" name="223bmp" color="24" fill="1" visible="no" active="no"/>
<layer number="224" name="224bmp" color="25" fill="1" visible="no" active="no"/>
<layer number="225" name="225bmp" color="7" fill="1" visible="yes" active="yes"/>
<layer number="226" name="226bmp" color="7" fill="1" visible="yes" active="yes"/>
<layer number="227" name="227bmp" color="7" fill="1" visible="yes" active="yes"/>
<layer number="228" name="228bmp" color="7" fill="1" visible="yes" active="yes"/>
<layer number="229" name="229bmp" color="7" fill="1" visible="yes" active="yes"/>
<layer number="230" name="230bmp" color="7" fill="1" visible="yes" active="yes"/>
<layer number="231" name="Eagle3D_PG1" color="7" fill="1" visible="no" active="no"/>
<layer number="232" name="Eagle3D_PG2" color="7" fill="1" visible="no" active="no"/>
<layer number="233" name="Eagle3D_PG3" color="7" fill="1" visible="no" active="no"/>
<layer number="248" name="Housing" color="7" fill="1" visible="no" active="yes"/>
<layer number="249" name="Edge" color="7" fill="1" visible="no" active="yes"/>
<layer number="250" name="Descript" color="7" fill="1" visible="no" active="no"/>
<layer number="251" name="SMDround" color="7" fill="1" visible="no" active="no"/>
<layer number="254" name="cooling" color="7" fill="1" visible="no" active="yes"/>
<layer number="255" name="routoute" color="7" fill="1" visible="yes" active="yes"/>
</layers>
<schematic xreflabel="%F%N/%S.%C%R" xrefpart="/%S.%C%R">
<libraries>
<library name="frames" urn="urn:adsk.eagle:library:229">
<description>&lt;b&gt;Frames for Sheet and Layout&lt;/b&gt;</description>
<packages>
</packages>
<symbols>
<symbol name="FRAME_A_L" urn="urn:adsk.eagle:symbol:13882/1" library_version="1">
<frame x1="0" y1="0" x2="279.4" y2="215.9" columns="6" rows="5" layer="94" border-bottom="no"/>
</symbol>
<symbol name="DOCFIELD" urn="urn:adsk.eagle:symbol:13864/1" library_version="1">
<wire x1="0" y1="0" x2="71.12" y2="0" width="0.1016" layer="94"/>
<wire x1="101.6" y1="15.24" x2="87.63" y2="15.24" width="0.1016" layer="94"/>
<wire x1="0" y1="0" x2="0" y2="5.08" width="0.1016" layer="94"/>
<wire x1="0" y1="5.08" x2="71.12" y2="5.08" width="0.1016" layer="94"/>
<wire x1="0" y1="5.08" x2="0" y2="15.24" width="0.1016" layer="94"/>
<wire x1="101.6" y1="15.24" x2="101.6" y2="5.08" width="0.1016" layer="94"/>
<wire x1="71.12" y1="5.08" x2="71.12" y2="0" width="0.1016" layer="94"/>
<wire x1="71.12" y1="5.08" x2="87.63" y2="5.08" width="0.1016" layer="94"/>
<wire x1="71.12" y1="0" x2="101.6" y2="0" width="0.1016" layer="94"/>
<wire x1="87.63" y1="15.24" x2="87.63" y2="5.08" width="0.1016" layer="94"/>
<wire x1="87.63" y1="15.24" x2="0" y2="15.24" width="0.1016" layer="94"/>
<wire x1="87.63" y1="5.08" x2="101.6" y2="5.08" width="0.1016" layer="94"/>
<wire x1="101.6" y1="5.08" x2="101.6" y2="0" width="0.1016" layer="94"/>
<wire x1="0" y1="15.24" x2="0" y2="22.86" width="0.1016" layer="94"/>
<wire x1="101.6" y1="35.56" x2="0" y2="35.56" width="0.1016" layer="94"/>
<wire x1="101.6" y1="35.56" x2="101.6" y2="22.86" width="0.1016" layer="94"/>
<wire x1="0" y1="22.86" x2="101.6" y2="22.86" width="0.1016" layer="94"/>
<wire x1="0" y1="22.86" x2="0" y2="35.56" width="0.1016" layer="94"/>
<wire x1="101.6" y1="22.86" x2="101.6" y2="15.24" width="0.1016" layer="94"/>
<text x="1.27" y="1.27" size="2.54" layer="94">Date:</text>
<text x="12.7" y="1.27" size="2.54" layer="94">&gt;LAST_DATE_TIME</text>
<text x="72.39" y="1.27" size="2.54" layer="94">Sheet:</text>
<text x="86.36" y="1.27" size="2.54" layer="94">&gt;SHEET</text>
<text x="88.9" y="11.43" size="2.54" layer="94">REV:</text>
<text x="1.27" y="19.05" size="2.54" layer="94">TITLE:</text>
<text x="1.27" y="11.43" size="2.54" layer="94">Document Number:</text>
<text x="17.78" y="19.05" size="2.54" layer="94">&gt;DRAWING_NAME</text>
</symbol>
</symbols>
<devicesets>
<deviceset name="FRAME_A_L" urn="urn:adsk.eagle:component:13939/1" prefix="FRAME" uservalue="yes" library_version="1">
<description>&lt;b&gt;FRAME&lt;/b&gt; A Size , 8 1/2 x 11 INCH, Landscape&lt;p&gt;</description>
<gates>
<gate name="G$1" symbol="FRAME_A_L" x="0" y="0" addlevel="always"/>
<gate name="G$2" symbol="DOCFIELD" x="172.72" y="0" addlevel="always"/>
</gates>
<devices>
<device name="">
<technologies>
<technology name=""/>
</technologies>
</device>
</devices>
</deviceset>
</devicesets>
</library>
<library name="adafruit" urn="urn:adsk.eagle:library:420">
<packages>
<package name="2X20" urn="urn:adsk.eagle:footprint:6240133/1" library_version="2">
<description>&lt;b&gt;PIN HEADER&lt;/b&gt;</description>
<wire x1="-25.4" y1="-1.905" x2="-24.765" y2="-2.54" width="0.1524" layer="21"/>
<wire x1="-24.765" y1="-2.54" x2="-23.495" y2="-2.54" width="0.1524" layer="21"/>
<wire x1="-23.495" y1="-2.54" x2="-22.86" y2="-1.905" width="0.1524" layer="21"/>
<wire x1="-22.86" y1="-1.905" x2="-22.225" y2="-2.54" width="0.1524" layer="21"/>
<wire x1="-22.225" y1="-2.54" x2="-20.955" y2="-2.54" width="0.1524" layer="21"/>
<wire x1="-20.955" y1="-2.54" x2="-20.32" y2="-1.905" width="0.1524" layer="21"/>
<wire x1="-20.32" y1="-1.905" x2="-19.685" y2="-2.54" width="0.1524" layer="21"/>
<wire x1="-19.685" y1="-2.54" x2="-18.415" y2="-2.54" width="0.1524" layer="21"/>
<wire x1="-18.415" y1="-2.54" x2="-17.78" y2="-1.905" width="0.1524" layer="21"/>
<wire x1="-17.78" y1="-1.905" x2="-17.145" y2="-2.54" width="0.1524" layer="21"/>
<wire x1="-17.145" y1="-2.54" x2="-15.875" y2="-2.54" width="0.1524" layer="21"/>
<wire x1="-15.875" y1="-2.54" x2="-15.24" y2="-1.905" width="0.1524" layer="21"/>
<wire x1="-15.24" y1="-1.905" x2="-14.605" y2="-2.54" width="0.1524" layer="21"/>
<wire x1="-14.605" y1="-2.54" x2="-13.335" y2="-2.54" width="0.1524" layer="21"/>
<wire x1="-13.335" y1="-2.54" x2="-12.7" y2="-1.905" width="0.1524" layer="21"/>
<wire x1="-12.7" y1="-1.905" x2="-12.065" y2="-2.54" width="0.1524" layer="21"/>
<wire x1="-12.065" y1="-2.54" x2="-10.795" y2="-2.54" width="0.1524" layer="21"/>
<wire x1="-10.795" y1="-2.54" x2="-10.16" y2="-1.905" width="0.1524" layer="21"/>
<wire x1="-25.4" y1="-1.905" x2="-25.4" y2="1.905" width="0.1524" layer="21"/>
<wire x1="-25.4" y1="1.905" x2="-24.765" y2="2.54" width="0.1524" layer="21"/>
<wire x1="-24.765" y1="2.54" x2="-23.495" y2="2.54" width="0.1524" layer="21"/>
<wire x1="-23.495" y1="2.54" x2="-22.86" y2="1.905" width="0.1524" layer="21"/>
<wire x1="-22.86" y1="1.905" x2="-22.225" y2="2.54" width="0.1524" layer="21"/>
<wire x1="-22.225" y1="2.54" x2="-20.955" y2="2.54" width="0.1524" layer="21"/>
<wire x1="-20.955" y1="2.54" x2="-20.32" y2="1.905" width="0.1524" layer="21"/>
<wire x1="-20.32" y1="1.905" x2="-19.685" y2="2.54" width="0.1524" layer="21"/>
<wire x1="-19.685" y1="2.54" x2="-18.415" y2="2.54" width="0.1524" layer="21"/>
<wire x1="-18.415" y1="2.54" x2="-17.78" y2="1.905" width="0.1524" layer="21"/>
<wire x1="-17.78" y1="1.905" x2="-17.145" y2="2.54" width="0.1524" layer="21"/>
<wire x1="-17.145" y1="2.54" x2="-15.875" y2="2.54" width="0.1524" layer="21"/>
<wire x1="-15.875" y1="2.54" x2="-15.24" y2="1.905" width="0.1524" layer="21"/>
<wire x1="-15.24" y1="1.905" x2="-14.605" y2="2.54" width="0.1524" layer="21"/>
<wire x1="-14.605" y1="2.54" x2="-13.335" y2="2.54" width="0.1524" layer="21"/>
<wire x1="-13.335" y1="2.54" x2="-12.7" y2="1.905" width="0.1524" layer="21"/>
<wire x1="-12.7" y1="1.905" x2="-12.065" y2="2.54" width="0.1524" layer="21"/>
<wire x1="-12.065" y1="2.54" x2="-10.795" y2="2.54" width="0.1524" layer="21"/>
<wire x1="-10.795" y1="2.54" x2="-10.16" y2="1.905" width="0.1524" layer="21"/>
<wire x1="-10.16" y1="1.905" x2="-9.525" y2="2.54" width="0.1524" layer="21"/>
<wire x1="-9.525" y1="2.54" x2="-8.255" y2="2.54" width="0.1524" layer="21"/>
<wire x1="-8.255" y1="2.54" x2="-7.62" y2="1.905" width="0.1524" layer="21"/>
<wire x1="-7.62" y1="1.905" x2="-6.985" y2="2.54" width="0.1524" layer="21"/>
<wire x1="-6.985" y1="2.54" x2="-5.715" y2="2.54" width="0.1524" layer="21"/>
<wire x1="-5.715" y1="2.54" x2="-5.08" y2="1.905" width="0.1524" layer="21"/>
<wire x1="-5.08" y1="1.905" x2="-4.445" y2="2.54" width="0.1524" layer="21"/>
<wire x1="-4.445" y1="2.54" x2="-3.175" y2="2.54" width="0.1524" layer="21"/>
<wire x1="-3.175" y1="2.54" x2="-2.54" y2="1.905" width="0.1524" layer="21"/>
<wire x1="-2.54" y1="1.905" x2="-1.905" y2="2.54" width="0.1524" layer="21"/>
<wire x1="-1.905" y1="2.54" x2="-0.635" y2="2.54" width="0.1524" layer="21"/>
<wire x1="-0.635" y1="2.54" x2="0" y2="1.905" width="0.1524" layer="21"/>
<wire x1="0" y1="1.905" x2="0.635" y2="2.54" width="0.1524" layer="21"/>
<wire x1="0.635" y1="2.54" x2="1.905" y2="2.54" width="0.1524" layer="21"/>
<wire x1="1.905" y1="2.54" x2="2.54" y2="1.905" width="0.1524" layer="21"/>
<wire x1="2.54" y1="1.905" x2="3.175" y2="2.54" width="0.1524" layer="21"/>
<wire x1="3.175" y1="2.54" x2="4.445" y2="2.54" width="0.1524" layer="21"/>
<wire x1="5.08" y1="1.905" x2="4.445" y2="2.54" width="0.1524" layer="21"/>
<wire x1="5.08" y1="1.905" x2="5.715" y2="2.54" width="0.1524" layer="21"/>
<wire x1="6.985" y1="2.54" x2="5.715" y2="2.54" width="0.1524" layer="21"/>
<wire x1="6.985" y1="2.54" x2="7.62" y2="1.905" width="0.1524" layer="21"/>
<wire x1="7.62" y1="1.905" x2="8.255" y2="2.54" width="0.1524" layer="21"/>
<wire x1="9.525" y1="2.54" x2="8.255" y2="2.54" width="0.1524" layer="21"/>
<wire x1="9.525" y1="2.54" x2="10.16" y2="1.905" width="0.1524" layer="21"/>
<wire x1="10.16" y1="1.905" x2="10.795" y2="2.54" width="0.1524" layer="21"/>
<wire x1="12.065" y1="2.54" x2="10.795" y2="2.54" width="0.1524" layer="21"/>
<wire x1="12.065" y1="2.54" x2="12.7" y2="1.905" width="0.1524" layer="21"/>
<wire x1="12.7" y1="1.905" x2="13.335" y2="2.54" width="0.1524" layer="21"/>
<wire x1="14.605" y1="2.54" x2="13.335" y2="2.54" width="0.1524" layer="21"/>
<wire x1="14.605" y1="2.54" x2="15.24" y2="1.905" width="0.1524" layer="21"/>
<wire x1="15.24" y1="1.905" x2="15.875" y2="2.54" width="0.1524" layer="21"/>
<wire x1="17.145" y1="2.54" x2="15.875" y2="2.54" width="0.1524" layer="21"/>
<wire x1="17.145" y1="2.54" x2="17.78" y2="1.905" width="0.1524" layer="21"/>
<wire x1="17.78" y1="1.905" x2="18.415" y2="2.54" width="0.1524" layer="21"/>
<wire x1="19.685" y1="2.54" x2="18.415" y2="2.54" width="0.1524" layer="21"/>
<wire x1="19.685" y1="2.54" x2="20.32" y2="1.905" width="0.1524" layer="21"/>
<wire x1="20.32" y1="1.905" x2="20.955" y2="2.54" width="0.1524" layer="21"/>
<wire x1="22.225" y1="2.54" x2="20.955" y2="2.54" width="0.1524" layer="21"/>
<wire x1="22.225" y1="2.54" x2="22.86" y2="1.905" width="0.1524" layer="21"/>
<wire x1="22.86" y1="-1.905" x2="22.225" y2="-2.54" width="0.1524" layer="21"/>
<wire x1="22.225" y1="-2.54" x2="20.955" y2="-2.54" width="0.1524" layer="21"/>
<wire x1="20.32" y1="-1.905" x2="20.955" y2="-2.54" width="0.1524" layer="21"/>
<wire x1="20.32" y1="-1.905" x2="19.685" y2="-2.54" width="0.1524" layer="21"/>
<wire x1="19.685" y1="-2.54" x2="18.415" y2="-2.54" width="0.1524" layer="21"/>
<wire x1="17.78" y1="-1.905" x2="18.415" y2="-2.54" width="0.1524" layer="21"/>
<wire x1="17.78" y1="-1.905" x2="17.145" y2="-2.54" width="0.1524" layer="21"/>
<wire x1="17.145" y1="-2.54" x2="15.875" y2="-2.54" width="0.1524" layer="21"/>
<wire x1="15.24" y1="-1.905" x2="15.875" y2="-2.54" width="0.1524" layer="21"/>
<wire x1="15.24" y1="-1.905" x2="14.605" y2="-2.54" width="0.1524" layer="21"/>
<wire x1="13.335" y1="-2.54" x2="14.605" y2="-2.54" width="0.1524" layer="21"/>
<wire x1="13.335" y1="-2.54" x2="12.7" y2="-1.905" width="0.1524" layer="21"/>
<wire x1="12.7" y1="-1.905" x2="12.065" y2="-2.54" width="0.1524" layer="21"/>
<wire x1="10.795" y1="-2.54" x2="12.065" y2="-2.54" width="0.1524" layer="21"/>
<wire x1="10.795" y1="-2.54" x2="10.16" y2="-1.905" width="0.1524" layer="21"/>
<wire x1="10.16" y1="-1.905" x2="9.525" y2="-2.54" width="0.1524" layer="21"/>
<wire x1="9.525" y1="-2.54" x2="8.255" y2="-2.54" width="0.1524" layer="21"/>
<wire x1="7.62" y1="-1.905" x2="8.255" y2="-2.54" width="0.1524" layer="21"/>
<wire x1="7.62" y1="-1.905" x2="6.985" y2="-2.54" width="0.1524" layer="21"/>
<wire x1="6.985" y1="-2.54" x2="5.715" y2="-2.54" width="0.1524" layer="21"/>
<wire x1="5.08" y1="-1.905" x2="5.715" y2="-2.54" width="0.1524" layer="21"/>
<wire x1="5.08" y1="-1.905" x2="4.445" y2="-2.54" width="0.1524" layer="21"/>
<wire x1="4.445" y1="-2.54" x2="3.175" y2="-2.54" width="0.1524" layer="21"/>
<wire x1="2.54" y1="-1.905" x2="3.175" y2="-2.54" width="0.1524" layer="21"/>
<wire x1="2.54" y1="-1.905" x2="1.905" y2="-2.54" width="0.1524" layer="21"/>
<wire x1="1.905" y1="-2.54" x2="0.635" y2="-2.54" width="0.1524" layer="21"/>
<wire x1="0" y1="-1.905" x2="0.635" y2="-2.54" width="0.1524" layer="21"/>
<wire x1="0" y1="-1.905" x2="-0.635" y2="-2.54" width="0.1524" layer="21"/>
<wire x1="-0.635" y1="-2.54" x2="-1.905" y2="-2.54" width="0.1524" layer="21"/>
<wire x1="-2.54" y1="-1.905" x2="-1.905" y2="-2.54" width="0.1524" layer="21"/>
<wire x1="-2.54" y1="-1.905" x2="-3.175" y2="-2.54" width="0.1524" layer="21"/>
<wire x1="-3.175" y1="-2.54" x2="-4.445" y2="-2.54" width="0.1524" layer="21"/>
<wire x1="-5.08" y1="-1.905" x2="-4.445" y2="-2.54" width="0.1524" layer="21"/>
<wire x1="-5.08" y1="-1.905" x2="-5.715" y2="-2.54" width="0.1524" layer="21"/>
<wire x1="-5.715" y1="-2.54" x2="-6.985" y2="-2.54" width="0.1524" layer="21"/>
<wire x1="-7.62" y1="-1.905" x2="-6.985" y2="-2.54" width="0.1524" layer="21"/>
<wire x1="-7.62" y1="-1.905" x2="-8.255" y2="-2.54" width="0.1524" layer="21"/>
<wire x1="-8.255" y1="-2.54" x2="-9.525" y2="-2.54" width="0.1524" layer="21"/>
<wire x1="-10.16" y1="-1.905" x2="-9.525" y2="-2.54" width="0.1524" layer="21"/>
<wire x1="-22.86" y1="1.905" x2="-22.86" y2="-1.905" width="0.1524" layer="21"/>
<wire x1="-20.32" y1="1.905" x2="-20.32" y2="-1.905" width="0.1524" layer="21"/>
<wire x1="-17.78" y1="1.905" x2="-17.78" y2="-1.905" width="0.1524" layer="21"/>
<wire x1="-15.24" y1="1.905" x2="-15.24" y2="-1.905" width="0.1524" layer="21"/>
<wire x1="-12.7" y1="1.905" x2="-12.7" y2="-1.905" width="0.1524" layer="21"/>
<wire x1="-10.16" y1="1.905" x2="-10.16" y2="-1.905" width="0.1524" layer="21"/>
<wire x1="-7.62" y1="1.905" x2="-7.62" y2="-1.905" width="0.1524" layer="21"/>
<wire x1="-5.08" y1="1.905" x2="-5.08" y2="-1.905" width="0.1524" layer="21"/>
<wire x1="-2.54" y1="1.905" x2="-2.54" y2="-1.905" width="0.1524" layer="21"/>
<wire x1="0" y1="1.905" x2="0" y2="-1.905" width="0.1524" layer="21"/>
<wire x1="2.54" y1="1.905" x2="2.54" y2="-1.905" width="0.1524" layer="21"/>
<wire x1="5.08" y1="1.905" x2="5.08" y2="-1.905" width="0.1524" layer="21"/>
<wire x1="7.62" y1="1.905" x2="7.62" y2="-1.905" width="0.1524" layer="21"/>
<wire x1="10.16" y1="1.905" x2="10.16" y2="-1.905" width="0.1524" layer="21"/>
<wire x1="12.7" y1="1.905" x2="12.7" y2="-1.905" width="0.1524" layer="21"/>
<wire x1="15.24" y1="1.905" x2="15.24" y2="-1.905" width="0.1524" layer="21"/>
<wire x1="17.78" y1="1.905" x2="17.78" y2="-1.905" width="0.1524" layer="21"/>
<wire x1="20.32" y1="1.905" x2="20.32" y2="-1.905" width="0.1524" layer="21"/>
<wire x1="22.86" y1="1.905" x2="22.86" y2="-1.905" width="0.1524" layer="21"/>
<wire x1="22.86" y1="1.905" x2="23.495" y2="2.54" width="0.1524" layer="21"/>
<wire x1="24.765" y1="2.54" x2="23.495" y2="2.54" width="0.1524" layer="21"/>
<wire x1="24.765" y1="2.54" x2="25.4" y2="1.905" width="0.1524" layer="21"/>
<wire x1="25.4" y1="-1.905" x2="24.765" y2="-2.54" width="0.1524" layer="21"/>
<wire x1="24.765" y1="-2.54" x2="23.495" y2="-2.54" width="0.1524" layer="21"/>
<wire x1="22.86" y1="-1.905" x2="23.495" y2="-2.54" width="0.1524" layer="21"/>
<wire x1="25.4" y1="1.905" x2="25.4" y2="-1.905" width="0.1524" layer="21"/>
<pad name="1" x="-24.13" y="-1.27" drill="1.016" shape="octagon"/>
<pad name="2" x="-24.13" y="1.27" drill="1.016" shape="octagon"/>
<pad name="3" x="-21.59" y="-1.27" drill="1.016" shape="octagon"/>
<pad name="4" x="-21.59" y="1.27" drill="1.016" shape="octagon"/>
<pad name="5" x="-19.05" y="-1.27" drill="1.016" shape="octagon"/>
<pad name="6" x="-19.05" y="1.27" drill="1.016" shape="octagon"/>
<pad name="7" x="-16.51" y="-1.27" drill="1.016" shape="octagon"/>
<pad name="8" x="-16.51" y="1.27" drill="1.016" shape="octagon"/>
<pad name="9" x="-13.97" y="-1.27" drill="1.016" shape="octagon"/>
<pad name="10" x="-13.97" y="1.27" drill="1.016" shape="octagon"/>
<pad name="11" x="-11.43" y="-1.27" drill="1.016" shape="octagon"/>
<pad name="12" x="-11.43" y="1.27" drill="1.016" shape="octagon"/>
<pad name="13" x="-8.89" y="-1.27" drill="1.016" shape="octagon"/>
<pad name="14" x="-8.89" y="1.27" drill="1.016" shape="octagon"/>
<pad name="15" x="-6.35" y="-1.27" drill="1.016" shape="octagon"/>
<pad name="16" x="-6.35" y="1.27" drill="1.016" shape="octagon"/>
<pad name="17" x="-3.81" y="-1.27" drill="1.016" shape="octagon"/>
<pad name="18" x="-3.81" y="1.27" drill="1.016" shape="octagon"/>
<pad name="19" x="-1.27" y="-1.27" drill="1.016" shape="octagon"/>
<pad name="20" x="-1.27" y="1.27" drill="1.016" shape="octagon"/>
<pad name="21" x="1.27" y="-1.27" drill="1.016" shape="octagon"/>
<pad name="22" x="1.27" y="1.27" drill="1.016" shape="octagon"/>
<pad name="23" x="3.81" y="-1.27" drill="1.016" shape="octagon"/>
<pad name="24" x="3.81" y="1.27" drill="1.016" shape="octagon"/>
<pad name="25" x="6.35" y="-1.27" drill="1.016" shape="octagon"/>
<pad name="26" x="6.35" y="1.27" drill="1.016" shape="octagon"/>
<pad name="27" x="8.89" y="-1.27" drill="1.016" shape="octagon"/>
<pad name="28" x="8.89" y="1.27" drill="1.016" shape="octagon"/>
<pad name="29" x="11.43" y="-1.27" drill="1.016" shape="octagon"/>
<pad name="30" x="11.43" y="1.27" drill="1.016" shape="octagon"/>
<pad name="31" x="13.97" y="-1.27" drill="1.016" shape="octagon"/>
<pad name="32" x="13.97" y="1.27" drill="1.016" shape="octagon"/>
<pad name="33" x="16.51" y="-1.27" drill="1.016" shape="octagon"/>
<pad name="34" x="16.51" y="1.27" drill="1.016" shape="octagon"/>
<pad name="35" x="19.05" y="-1.27" drill="1.016" shape="octagon"/>
<pad name="36" x="19.05" y="1.27" drill="1.016" shape="octagon"/>
<pad name="37" x="21.59" y="-1.27" drill="1.016" shape="octagon"/>
<pad name="38" x="21.59" y="1.27" drill="1.016" shape="octagon"/>
<pad name="39" x="24.13" y="-1.27" drill="1.016" shape="octagon"/>
<pad name="40" x="24.13" y="1.27" drill="1.016" shape="octagon"/>
<text x="-25.4" y="3.175" size="1.27" layer="25" ratio="10">&gt;NAME</text>
<text x="-25.4" y="-4.445" size="1.27" layer="27">&gt;VALUE</text>
<rectangle x1="-24.384" y1="-1.524" x2="-23.876" y2="-1.016" layer="51"/>
<rectangle x1="-24.384" y1="1.016" x2="-23.876" y2="1.524" layer="51"/>
<rectangle x1="-21.844" y1="1.016" x2="-21.336" y2="1.524" layer="51"/>
<rectangle x1="-21.844" y1="-1.524" x2="-21.336" y2="-1.016" layer="51"/>
<rectangle x1="-19.304" y1="1.016" x2="-18.796" y2="1.524" layer="51"/>
<rectangle x1="-19.304" y1="-1.524" x2="-18.796" y2="-1.016" layer="51"/>
<rectangle x1="-16.764" y1="1.016" x2="-16.256" y2="1.524" layer="51"/>
<rectangle x1="-14.224" y1="1.016" x2="-13.716" y2="1.524" layer="51"/>
<rectangle x1="-11.684" y1="1.016" x2="-11.176" y2="1.524" layer="51"/>
<rectangle x1="-16.764" y1="-1.524" x2="-16.256" y2="-1.016" layer="51"/>
<rectangle x1="-14.224" y1="-1.524" x2="-13.716" y2="-1.016" layer="51"/>
<rectangle x1="-11.684" y1="-1.524" x2="-11.176" y2="-1.016" layer="51"/>
<rectangle x1="-9.144" y1="1.016" x2="-8.636" y2="1.524" layer="51"/>
<rectangle x1="-9.144" y1="-1.524" x2="-8.636" y2="-1.016" layer="51"/>
<rectangle x1="-6.604" y1="1.016" x2="-6.096" y2="1.524" layer="51"/>
<rectangle x1="-6.604" y1="-1.524" x2="-6.096" y2="-1.016" layer="51"/>
<rectangle x1="-4.064" y1="1.016" x2="-3.556" y2="1.524" layer="51"/>
<rectangle x1="-4.064" y1="-1.524" x2="-3.556" y2="-1.016" layer="51"/>
<rectangle x1="-1.524" y1="1.016" x2="-1.016" y2="1.524" layer="51"/>
<rectangle x1="-1.524" y1="-1.524" x2="-1.016" y2="-1.016" layer="51"/>
<rectangle x1="1.016" y1="1.016" x2="1.524" y2="1.524" layer="51"/>
<rectangle x1="1.016" y1="-1.524" x2="1.524" y2="-1.016" layer="51"/>
<rectangle x1="3.556" y1="1.016" x2="4.064" y2="1.524" layer="51"/>
<rectangle x1="3.556" y1="-1.524" x2="4.064" y2="-1.016" layer="51"/>
<rectangle x1="6.096" y1="1.016" x2="6.604" y2="1.524" layer="51"/>
<rectangle x1="6.096" y1="-1.524" x2="6.604" y2="-1.016" layer="51"/>
<rectangle x1="8.636" y1="1.016" x2="9.144" y2="1.524" layer="51"/>
<rectangle x1="8.636" y1="-1.524" x2="9.144" y2="-1.016" layer="51"/>
<rectangle x1="11.176" y1="1.016" x2="11.684" y2="1.524" layer="51"/>
<rectangle x1="11.176" y1="-1.524" x2="11.684" y2="-1.016" layer="51"/>
<rectangle x1="13.716" y1="1.016" x2="14.224" y2="1.524" layer="51"/>
<rectangle x1="13.716" y1="-1.524" x2="14.224" y2="-1.016" layer="51"/>
<rectangle x1="16.256" y1="1.016" x2="16.764" y2="1.524" layer="51"/>
<rectangle x1="16.256" y1="-1.524" x2="16.764" y2="-1.016" layer="51"/>
<rectangle x1="18.796" y1="1.016" x2="19.304" y2="1.524" layer="51"/>
<rectangle x1="18.796" y1="-1.524" x2="19.304" y2="-1.016" layer="51"/>
<rectangle x1="21.336" y1="1.016" x2="21.844" y2="1.524" layer="51"/>
<rectangle x1="21.336" y1="-1.524" x2="21.844" y2="-1.016" layer="51"/>
<rectangle x1="23.876" y1="1.016" x2="24.384" y2="1.524" layer="51"/>
<rectangle x1="23.876" y1="-1.524" x2="24.384" y2="-1.016" layer="51"/>
</package>
<package name="2X20-BIG" urn="urn:adsk.eagle:footprint:6240135/1" library_version="2">
<wire x1="-25.4" y1="-1.905" x2="-24.765" y2="-2.54" width="0.1524" layer="21"/>
<wire x1="-24.765" y1="-2.54" x2="-23.495" y2="-2.54" width="0.1524" layer="21"/>
<wire x1="-23.495" y1="-2.54" x2="-22.86" y2="-1.905" width="0.1524" layer="21"/>
<wire x1="-22.86" y1="-1.905" x2="-22.225" y2="-2.54" width="0.1524" layer="21"/>
<wire x1="-22.225" y1="-2.54" x2="-20.955" y2="-2.54" width="0.1524" layer="21"/>
<wire x1="-20.955" y1="-2.54" x2="-20.32" y2="-1.905" width="0.1524" layer="21"/>
<wire x1="-20.32" y1="-1.905" x2="-19.685" y2="-2.54" width="0.1524" layer="21"/>
<wire x1="-19.685" y1="-2.54" x2="-18.415" y2="-2.54" width="0.1524" layer="21"/>
<wire x1="-18.415" y1="-2.54" x2="-17.78" y2="-1.905" width="0.1524" layer="21"/>
<wire x1="-17.78" y1="-1.905" x2="-17.145" y2="-2.54" width="0.1524" layer="21"/>
<wire x1="-17.145" y1="-2.54" x2="-15.875" y2="-2.54" width="0.1524" layer="21"/>
<wire x1="-15.875" y1="-2.54" x2="-15.24" y2="-1.905" width="0.1524" layer="21"/>
<wire x1="-15.24" y1="-1.905" x2="-14.605" y2="-2.54" width="0.1524" layer="21"/>
<wire x1="-14.605" y1="-2.54" x2="-13.335" y2="-2.54" width="0.1524" layer="21"/>
<wire x1="-13.335" y1="-2.54" x2="-12.7" y2="-1.905" width="0.1524" layer="21"/>
<wire x1="-12.7" y1="-1.905" x2="-12.065" y2="-2.54" width="0.1524" layer="21"/>
<wire x1="-12.065" y1="-2.54" x2="-10.795" y2="-2.54" width="0.1524" layer="21"/>
<wire x1="-10.795" y1="-2.54" x2="-10.16" y2="-1.905" width="0.1524" layer="21"/>
<wire x1="-25.4" y1="-1.905" x2="-25.4" y2="1.905" width="0.1524" layer="21"/>
<wire x1="-25.4" y1="1.905" x2="-24.765" y2="2.54" width="0.1524" layer="21"/>
<wire x1="-24.765" y1="2.54" x2="-23.495" y2="2.54" width="0.1524" layer="21"/>
<wire x1="-23.495" y1="2.54" x2="-22.86" y2="1.905" width="0.1524" layer="21"/>
<wire x1="-22.86" y1="1.905" x2="-22.225" y2="2.54" width="0.1524" layer="21"/>
<wire x1="-22.225" y1="2.54" x2="-20.955" y2="2.54" width="0.1524" layer="21"/>
<wire x1="-20.955" y1="2.54" x2="-20.32" y2="1.905" width="0.1524" layer="21"/>
<wire x1="-20.32" y1="1.905" x2="-19.685" y2="2.54" width="0.1524" layer="21"/>
<wire x1="-19.685" y1="2.54" x2="-18.415" y2="2.54" width="0.1524" layer="21"/>
<wire x1="-18.415" y1="2.54" x2="-17.78" y2="1.905" width="0.1524" layer="21"/>
<wire x1="-17.78" y1="1.905" x2="-17.145" y2="2.54" width="0.1524" layer="21"/>
<wire x1="-17.145" y1="2.54" x2="-15.875" y2="2.54" width="0.1524" layer="21"/>
<wire x1="-15.875" y1="2.54" x2="-15.24" y2="1.905" width="0.1524" layer="21"/>
<wire x1="-15.24" y1="1.905" x2="-14.605" y2="2.54" width="0.1524" layer="21"/>
<wire x1="-14.605" y1="2.54" x2="-13.335" y2="2.54" width="0.1524" layer="21"/>
<wire x1="-13.335" y1="2.54" x2="-12.7" y2="1.905" width="0.1524" layer="21"/>
<wire x1="-12.7" y1="1.905" x2="-12.065" y2="2.54" width="0.1524" layer="21"/>
<wire x1="-12.065" y1="2.54" x2="-10.795" y2="2.54" width="0.1524" layer="21"/>
<wire x1="-10.795" y1="2.54" x2="-10.16" y2="1.905" width="0.1524" layer="21"/>
<wire x1="-10.16" y1="1.905" x2="-9.525" y2="2.54" width="0.1524" layer="21"/>
<wire x1="-9.525" y1="2.54" x2="-8.255" y2="2.54" width="0.1524" layer="21"/>
<wire x1="-8.255" y1="2.54" x2="-7.62" y2="1.905" width="0.1524" layer="21"/>
<wire x1="-7.62" y1="1.905" x2="-6.985" y2="2.54" width="0.1524" layer="21"/>
<wire x1="-6.985" y1="2.54" x2="-5.715" y2="2.54" width="0.1524" layer="21"/>
<wire x1="-5.715" y1="2.54" x2="-5.08" y2="1.905" width="0.1524" layer="21"/>
<wire x1="-5.08" y1="1.905" x2="-4.445" y2="2.54" width="0.1524" layer="21"/>
<wire x1="-4.445" y1="2.54" x2="-3.175" y2="2.54" width="0.1524" layer="21"/>
<wire x1="-3.175" y1="2.54" x2="-2.54" y2="1.905" width="0.1524" layer="21"/>
<wire x1="-2.54" y1="1.905" x2="-1.905" y2="2.54" width="0.1524" layer="21"/>
<wire x1="-1.905" y1="2.54" x2="-0.635" y2="2.54" width="0.1524" layer="21"/>
<wire x1="-0.635" y1="2.54" x2="0" y2="1.905" width="0.1524" layer="21"/>
<wire x1="0" y1="1.905" x2="0.635" y2="2.54" width="0.1524" layer="21"/>
<wire x1="0.635" y1="2.54" x2="1.905" y2="2.54" width="0.1524" layer="21"/>
<wire x1="1.905" y1="2.54" x2="2.54" y2="1.905" width="0.1524" layer="21"/>
<wire x1="2.54" y1="1.905" x2="3.175" y2="2.54" width="0.1524" layer="21"/>
<wire x1="3.175" y1="2.54" x2="4.445" y2="2.54" width="0.1524" layer="21"/>
<wire x1="5.08" y1="1.905" x2="4.445" y2="2.54" width="0.1524" layer="21"/>
<wire x1="5.08" y1="1.905" x2="5.715" y2="2.54" width="0.1524" layer="21"/>
<wire x1="6.985" y1="2.54" x2="5.715" y2="2.54" width="0.1524" layer="21"/>
<wire x1="6.985" y1="2.54" x2="7.62" y2="1.905" width="0.1524" layer="21"/>
<wire x1="7.62" y1="1.905" x2="8.255" y2="2.54" width="0.1524" layer="21"/>
<wire x1="9.525" y1="2.54" x2="8.255" y2="2.54" width="0.1524" layer="21"/>
<wire x1="9.525" y1="2.54" x2="10.16" y2="1.905" width="0.1524" layer="21"/>
<wire x1="10.16" y1="1.905" x2="10.795" y2="2.54" width="0.1524" layer="21"/>
<wire x1="12.065" y1="2.54" x2="10.795" y2="2.54" width="0.1524" layer="21"/>
<wire x1="12.065" y1="2.54" x2="12.7" y2="1.905" width="0.1524" layer="21"/>
<wire x1="12.7" y1="1.905" x2="13.335" y2="2.54" width="0.1524" layer="21"/>
<wire x1="14.605" y1="2.54" x2="13.335" y2="2.54" width="0.1524" layer="21"/>
<wire x1="14.605" y1="2.54" x2="15.24" y2="1.905" width="0.1524" layer="21"/>
<wire x1="15.24" y1="1.905" x2="15.875" y2="2.54" width="0.1524" layer="21"/>
<wire x1="17.145" y1="2.54" x2="15.875" y2="2.54" width="0.1524" layer="21"/>
<wire x1="17.145" y1="2.54" x2="17.78" y2="1.905" width="0.1524" layer="21"/>
<wire x1="17.78" y1="1.905" x2="18.415" y2="2.54" width="0.1524" layer="21"/>
<wire x1="19.685" y1="2.54" x2="18.415" y2="2.54" width="0.1524" layer="21"/>
<wire x1="19.685" y1="2.54" x2="20.32" y2="1.905" width="0.1524" layer="21"/>
<wire x1="20.32" y1="1.905" x2="20.955" y2="2.54" width="0.1524" layer="21"/>
<wire x1="22.225" y1="2.54" x2="20.955" y2="2.54" width="0.1524" layer="21"/>
<wire x1="22.225" y1="2.54" x2="22.86" y2="1.905" width="0.1524" layer="21"/>
<wire x1="22.86" y1="-1.905" x2="22.225" y2="-2.54" width="0.1524" layer="21"/>
<wire x1="22.225" y1="-2.54" x2="20.955" y2="-2.54" width="0.1524" layer="21"/>
<wire x1="20.32" y1="-1.905" x2="20.955" y2="-2.54" width="0.1524" layer="21"/>
<wire x1="20.32" y1="-1.905" x2="19.685" y2="-2.54" width="0.1524" layer="21"/>
<wire x1="19.685" y1="-2.54" x2="18.415" y2="-2.54" width="0.1524" layer="21"/>
<wire x1="17.78" y1="-1.905" x2="18.415" y2="-2.54" width="0.1524" layer="21"/>
<wire x1="17.78" y1="-1.905" x2="17.145" y2="-2.54" width="0.1524" layer="21"/>
<wire x1="17.145" y1="-2.54" x2="15.875" y2="-2.54" width="0.1524" layer="21"/>
<wire x1="15.24" y1="-1.905" x2="15.875" y2="-2.54" width="0.1524" layer="21"/>
<wire x1="15.24" y1="-1.905" x2="14.605" y2="-2.54" width="0.1524" layer="21"/>
<wire x1="13.335" y1="-2.54" x2="14.605" y2="-2.54" width="0.1524" layer="21"/>
<wire x1="13.335" y1="-2.54" x2="12.7" y2="-1.905" width="0.1524" layer="21"/>
<wire x1="12.7" y1="-1.905" x2="12.065" y2="-2.54" width="0.1524" layer="21"/>
<wire x1="10.795" y1="-2.54" x2="12.065" y2="-2.54" width="0.1524" layer="21"/>
<wire x1="10.795" y1="-2.54" x2="10.16" y2="-1.905" width="0.1524" layer="21"/>
<wire x1="10.16" y1="-1.905" x2="9.525" y2="-2.54" width="0.1524" layer="21"/>
<wire x1="9.525" y1="-2.54" x2="8.255" y2="-2.54" width="0.1524" layer="21"/>
<wire x1="7.62" y1="-1.905" x2="8.255" y2="-2.54" width="0.1524" layer="21"/>
<wire x1="7.62" y1="-1.905" x2="6.985" y2="-2.54" width="0.1524" layer="21"/>
<wire x1="6.985" y1="-2.54" x2="5.715" y2="-2.54" width="0.1524" layer="21"/>
<wire x1="5.08" y1="-1.905" x2="5.715" y2="-2.54" width="0.1524" layer="21"/>
<wire x1="5.08" y1="-1.905" x2="4.445" y2="-2.54" width="0.1524" layer="21"/>
<wire x1="4.445" y1="-2.54" x2="3.175" y2="-2.54" width="0.1524" layer="21"/>
<wire x1="2.54" y1="-1.905" x2="3.175" y2="-2.54" width="0.1524" layer="21"/>
<wire x1="2.54" y1="-1.905" x2="1.905" y2="-2.54" width="0.1524" layer="21"/>
<wire x1="1.905" y1="-2.54" x2="0.635" y2="-2.54" width="0.1524" layer="21"/>
<wire x1="0" y1="-1.905" x2="0.635" y2="-2.54" width="0.1524" layer="21"/>
<wire x1="0" y1="-1.905" x2="-0.635" y2="-2.54" width="0.1524" layer="21"/>
<wire x1="-0.635" y1="-2.54" x2="-1.905" y2="-2.54" width="0.1524" layer="21"/>
<wire x1="-2.54" y1="-1.905" x2="-1.905" y2="-2.54" width="0.1524" layer="21"/>
<wire x1="-2.54" y1="-1.905" x2="-3.175" y2="-2.54" width="0.1524" layer="21"/>
<wire x1="-3.175" y1="-2.54" x2="-4.445" y2="-2.54" width="0.1524" layer="21"/>
<wire x1="-5.08" y1="-1.905" x2="-4.445" y2="-2.54" width="0.1524" layer="21"/>
<wire x1="-5.08" y1="-1.905" x2="-5.715" y2="-2.54" width="0.1524" layer="21"/>
<wire x1="-5.715" y1="-2.54" x2="-6.985" y2="-2.54" width="0.1524" layer="21"/>
<wire x1="-7.62" y1="-1.905" x2="-6.985" y2="-2.54" width="0.1524" layer="21"/>
<wire x1="-7.62" y1="-1.905" x2="-8.255" y2="-2.54" width="0.1524" layer="21"/>
<wire x1="-8.255" y1="-2.54" x2="-9.525" y2="-2.54" width="0.1524" layer="21"/>
<wire x1="-10.16" y1="-1.905" x2="-9.525" y2="-2.54" width="0.1524" layer="21"/>
<wire x1="-22.86" y1="1.905" x2="-22.86" y2="-1.905" width="0.1524" layer="21"/>
<wire x1="-20.32" y1="1.905" x2="-20.32" y2="-1.905" width="0.1524" layer="21"/>
<wire x1="-17.78" y1="1.905" x2="-17.78" y2="-1.905" width="0.1524" layer="21"/>
<wire x1="-15.24" y1="1.905" x2="-15.24" y2="-1.905" width="0.1524" layer="21"/>
<wire x1="-12.7" y1="1.905" x2="-12.7" y2="-1.905" width="0.1524" layer="21"/>
<wire x1="-10.16" y1="1.905" x2="-10.16" y2="-1.905" width="0.1524" layer="21"/>
<wire x1="-7.62" y1="1.905" x2="-7.62" y2="-1.905" width="0.1524" layer="21"/>
<wire x1="-5.08" y1="1.905" x2="-5.08" y2="-1.905" width="0.1524" layer="21"/>
<wire x1="-2.54" y1="1.905" x2="-2.54" y2="-1.905" width="0.1524" layer="21"/>
<wire x1="0" y1="1.905" x2="0" y2="-1.905" width="0.1524" layer="21"/>
<wire x1="2.54" y1="1.905" x2="2.54" y2="-1.905" width="0.1524" layer="21"/>
<wire x1="5.08" y1="1.905" x2="5.08" y2="-1.905" width="0.1524" layer="21"/>
<wire x1="7.62" y1="1.905" x2="7.62" y2="-1.905" width="0.1524" layer="21"/>
<wire x1="10.16" y1="1.905" x2="10.16" y2="-1.905" width="0.1524" layer="21"/>
<wire x1="12.7" y1="1.905" x2="12.7" y2="-1.905" width="0.1524" layer="21"/>
<wire x1="15.24" y1="1.905" x2="15.24" y2="-1.905" width="0.1524" layer="21"/>
<wire x1="17.78" y1="1.905" x2="17.78" y2="-1.905" width="0.1524" layer="21"/>
<wire x1="20.32" y1="1.905" x2="20.32" y2="-1.905" width="0.1524" layer="21"/>
<wire x1="22.86" y1="1.905" x2="22.86" y2="-1.905" width="0.1524" layer="21"/>
<wire x1="22.86" y1="1.905" x2="23.495" y2="2.54" width="0.1524" layer="21"/>
<wire x1="24.765" y1="2.54" x2="23.495" y2="2.54" width="0.1524" layer="21"/>
<wire x1="24.765" y1="2.54" x2="25.4" y2="1.905" width="0.1524" layer="21"/>
<wire x1="25.4" y1="-1.905" x2="24.765" y2="-2.54" width="0.1524" layer="21"/>
<wire x1="24.765" y1="-2.54" x2="23.495" y2="-2.54" width="0.1524" layer="21"/>
<wire x1="22.86" y1="-1.905" x2="23.495" y2="-2.54" width="0.1524" layer="21"/>
<wire x1="25.4" y1="1.905" x2="25.4" y2="-1.905" width="0.1524" layer="21"/>
<pad name="1" x="-24.13" y="-1.27" drill="1.016" diameter="1.778" shape="octagon"/>
<pad name="2" x="-24.13" y="1.27" drill="1.016" diameter="1.778" shape="octagon"/>
<pad name="3" x="-21.59" y="-1.27" drill="1.016" diameter="1.778" shape="octagon"/>
<pad name="4" x="-21.59" y="1.27" drill="1.016" diameter="1.778" shape="octagon"/>
<pad name="5" x="-19.05" y="-1.27" drill="1.016" diameter="1.778" shape="octagon"/>
<pad name="6" x="-19.05" y="1.27" drill="1.016" diameter="1.778" shape="octagon"/>
<pad name="7" x="-16.51" y="-1.27" drill="1.016" diameter="1.778" shape="octagon"/>
<pad name="8" x="-16.51" y="1.27" drill="1.016" diameter="1.778" shape="octagon"/>
<pad name="9" x="-13.97" y="-1.27" drill="1.016" diameter="1.778" shape="octagon"/>
<pad name="10" x="-13.97" y="1.27" drill="1.016" diameter="1.778" shape="octagon"/>
<pad name="11" x="-11.43" y="-1.27" drill="1.016" diameter="1.778" shape="octagon"/>
<pad name="12" x="-11.43" y="1.27" drill="1.016" diameter="1.778" shape="octagon"/>
<pad name="13" x="-8.89" y="-1.27" drill="1.016" diameter="1.778" shape="octagon"/>
<pad name="14" x="-8.89" y="1.27" drill="1.016" diameter="1.778" shape="octagon"/>
<pad name="15" x="-6.35" y="-1.27" drill="1.016" diameter="1.778" shape="octagon"/>
<pad name="16" x="-6.35" y="1.27" drill="1.016" diameter="1.778" shape="octagon"/>
<pad name="17" x="-3.81" y="-1.27" drill="1.016" diameter="1.778" shape="octagon"/>
<pad name="18" x="-3.81" y="1.27" drill="1.016" diameter="1.778" shape="octagon"/>
<pad name="19" x="-1.27" y="-1.27" drill="1.016" diameter="1.778" shape="octagon"/>
<pad name="20" x="-1.27" y="1.27" drill="1.016" diameter="1.778" shape="octagon"/>
<pad name="21" x="1.27" y="-1.27" drill="1.016" diameter="1.778" shape="octagon"/>
<pad name="22" x="1.27" y="1.27" drill="1.016" diameter="1.778" shape="octagon"/>
<pad name="23" x="3.81" y="-1.27" drill="1.016" diameter="1.778" shape="octagon"/>
<pad name="24" x="3.81" y="1.27" drill="1.016" diameter="1.778" shape="octagon"/>
<pad name="25" x="6.35" y="-1.27" drill="1.016" diameter="1.778" shape="octagon"/>
<pad name="26" x="6.35" y="1.27" drill="1.016" diameter="1.778" shape="octagon"/>
<pad name="27" x="8.89" y="-1.27" drill="1.016" diameter="1.778" shape="octagon"/>
<pad name="28" x="8.89" y="1.27" drill="1.016" diameter="1.778" shape="octagon"/>
<pad name="29" x="11.43" y="-1.27" drill="1.016" diameter="1.778" shape="octagon"/>
<pad name="30" x="11.43" y="1.27" drill="1.016" diameter="1.778" shape="octagon"/>
<pad name="31" x="13.97" y="-1.27" drill="1.016" diameter="1.778" shape="octagon"/>
<pad name="32" x="13.97" y="1.27" drill="1.016" diameter="1.778" shape="octagon"/>
<pad name="33" x="16.51" y="-1.27" drill="1.016" diameter="1.778" shape="octagon"/>
<pad name="34" x="16.51" y="1.27" drill="1.016" diameter="1.778" shape="octagon"/>
<pad name="35" x="19.05" y="-1.27" drill="1.016" diameter="1.778" shape="octagon"/>
<pad name="36" x="19.05" y="1.27" drill="1.016" diameter="1.778" shape="octagon"/>
<pad name="37" x="21.59" y="-1.27" drill="1.016" diameter="1.778" shape="octagon"/>
<pad name="38" x="21.59" y="1.27" drill="1.016" diameter="1.778" shape="octagon"/>
<pad name="39" x="24.13" y="-1.27" drill="1.016" diameter="1.778" shape="octagon"/>
<pad name="40" x="24.13" y="1.27" drill="1.016" diameter="1.778" shape="octagon"/>
<text x="-25.4" y="3.175" size="1.27" layer="25" ratio="10">&gt;NAME</text>
<text x="-25.4" y="-4.445" size="1.27" layer="27">&gt;VALUE</text>
<rectangle x1="-24.384" y1="-1.524" x2="-23.876" y2="-1.016" layer="51"/>
<rectangle x1="-24.384" y1="1.016" x2="-23.876" y2="1.524" layer="51"/>
<rectangle x1="-21.844" y1="1.016" x2="-21.336" y2="1.524" layer="51"/>
<rectangle x1="-21.844" y1="-1.524" x2="-21.336" y2="-1.016" layer="51"/>
<rectangle x1="-19.304" y1="1.016" x2="-18.796" y2="1.524" layer="51"/>
<rectangle x1="-19.304" y1="-1.524" x2="-18.796" y2="-1.016" layer="51"/>
<rectangle x1="-16.764" y1="1.016" x2="-16.256" y2="1.524" layer="51"/>
<rectangle x1="-14.224" y1="1.016" x2="-13.716" y2="1.524" layer="51"/>
<rectangle x1="-11.684" y1="1.016" x2="-11.176" y2="1.524" layer="51"/>
<rectangle x1="-16.764" y1="-1.524" x2="-16.256" y2="-1.016" layer="51"/>
<rectangle x1="-14.224" y1="-1.524" x2="-13.716" y2="-1.016" layer="51"/>
<rectangle x1="-11.684" y1="-1.524" x2="-11.176" y2="-1.016" layer="51"/>
<rectangle x1="-9.144" y1="1.016" x2="-8.636" y2="1.524" layer="51"/>
<rectangle x1="-9.144" y1="-1.524" x2="-8.636" y2="-1.016" layer="51"/>
<rectangle x1="-6.604" y1="1.016" x2="-6.096" y2="1.524" layer="51"/>
<rectangle x1="-6.604" y1="-1.524" x2="-6.096" y2="-1.016" layer="51"/>
<rectangle x1="-4.064" y1="1.016" x2="-3.556" y2="1.524" layer="51"/>
<rectangle x1="-4.064" y1="-1.524" x2="-3.556" y2="-1.016" layer="51"/>
<rectangle x1="-1.524" y1="1.016" x2="-1.016" y2="1.524" layer="51"/>
<rectangle x1="-1.524" y1="-1.524" x2="-1.016" y2="-1.016" layer="51"/>
<rectangle x1="1.016" y1="1.016" x2="1.524" y2="1.524" layer="51"/>
<rectangle x1="1.016" y1="-1.524" x2="1.524" y2="-1.016" layer="51"/>
<rectangle x1="3.556" y1="1.016" x2="4.064" y2="1.524" layer="51"/>
<rectangle x1="3.556" y1="-1.524" x2="4.064" y2="-1.016" layer="51"/>
<rectangle x1="6.096" y1="1.016" x2="6.604" y2="1.524" layer="51"/>
<rectangle x1="6.096" y1="-1.524" x2="6.604" y2="-1.016" layer="51"/>
<rectangle x1="8.636" y1="1.016" x2="9.144" y2="1.524" layer="51"/>
<rectangle x1="8.636" y1="-1.524" x2="9.144" y2="-1.016" layer="51"/>
<rectangle x1="11.176" y1="1.016" x2="11.684" y2="1.524" layer="51"/>
<rectangle x1="11.176" y1="-1.524" x2="11.684" y2="-1.016" layer="51"/>
<rectangle x1="13.716" y1="1.016" x2="14.224" y2="1.524" layer="51"/>
<rectangle x1="13.716" y1="-1.524" x2="14.224" y2="-1.016" layer="51"/>
<rectangle x1="16.256" y1="1.016" x2="16.764" y2="1.524" layer="51"/>
<rectangle x1="16.256" y1="-1.524" x2="16.764" y2="-1.016" layer="51"/>
<rectangle x1="18.796" y1="1.016" x2="19.304" y2="1.524" layer="51"/>
<rectangle x1="18.796" y1="-1.524" x2="19.304" y2="-1.016" layer="51"/>
<rectangle x1="21.336" y1="1.016" x2="21.844" y2="1.524" layer="51"/>
<rectangle x1="21.336" y1="-1.524" x2="21.844" y2="-1.016" layer="51"/>
<rectangle x1="23.876" y1="1.016" x2="24.384" y2="1.524" layer="51"/>
<rectangle x1="23.876" y1="-1.524" x2="24.384" y2="-1.016" layer="51"/>
</package>
<package name="PJ-102A" urn="urn:adsk.eagle:footprint:6239682/1" library_version="2">
<wire x1="-4.6" y1="4.4" x2="4.4" y2="4.4" width="0.127" layer="21"/>
<wire x1="4.4" y1="4.4" x2="4.4" y2="-10.2" width="0.127" layer="21"/>
<wire x1="4.4" y1="-10.2" x2="-4.6" y2="-10.2" width="0.127" layer="21"/>
<wire x1="-4.6" y1="-10.2" x2="-4.6" y2="4.4" width="0.127" layer="21"/>
<pad name="RING_SW" x="-4.6" y="-6.29" drill="3" diameter="4.8" rot="R180"/>
<pad name="TIP" x="0.1" y="-9.29" drill="3" diameter="4.8" rot="R180"/>
<pad name="RING" x="0.1" y="-3.39" drill="3" diameter="4.8" rot="R180"/>
</package>
<package name="DCJACK_2MM_SMT" urn="urn:adsk.eagle:footprint:6240084/1" library_version="2">
<description>2.0/2.1mm DC Jack - SMT
&lt;p&gt;4UConnector: 03267&lt;/p&gt;
&lt;p&gt;Note: Small tRestrict polygon's were added to the ground pads to improve solderability when this part is used in combination with a ground pour.  By default, Eagle will product four large bridges to the ground pour significantly increasing the heat distribution on the pads and preventing lead-free solder from reflowing in certain situations.  For more details, see: http://www.microbuilder.eu/Blog/09-12-14/Reducing_Thermals_for_Large_Pads_in_Eagle.aspx&lt;/p&gt;</description>
<wire x1="-4" y1="4.5" x2="-5" y2="3.5" width="0.127" layer="51" curve="90"/>
<wire x1="-5" y1="3.5" x2="-5" y2="-3.5" width="0.127" layer="51"/>
<wire x1="-5" y1="-3.5" x2="-4" y2="-4.5" width="0.127" layer="51" curve="90"/>
<wire x1="-4" y1="-4.5" x2="10.254" y2="-4.5" width="0.127" layer="51"/>
<wire x1="10.254" y1="-4.5" x2="10.254" y2="-1.492" width="0.127" layer="51"/>
<wire x1="10.254" y1="-1.492" x2="9" y2="-1.492" width="0.127" layer="51"/>
<wire x1="9" y1="-1.492" x2="9" y2="4.5" width="0.127" layer="51"/>
<wire x1="9" y1="4.5" x2="-4" y2="4.5" width="0.127" layer="51"/>
<wire x1="-4" y1="4.5" x2="-5" y2="3.5" width="0.127" layer="21" curve="90"/>
<wire x1="-5" y1="3.5" x2="-5" y2="-3.5" width="0.127" layer="21"/>
<wire x1="-5" y1="-3.5" x2="-4" y2="-4.5" width="0.127" layer="21" curve="90"/>
<wire x1="10.254" y1="-4.5" x2="10.254" y2="-1.492" width="0.127" layer="21"/>
<wire x1="10.254" y1="-1.492" x2="9" y2="-1.492" width="0.127" layer="21"/>
<wire x1="9" y1="-1.492" x2="9" y2="4.5" width="0.127" layer="21"/>
<wire x1="-1.668" y1="4.5" x2="-4" y2="4.5" width="0.127" layer="21"/>
<wire x1="4.682" y1="4.5" x2="1.588" y2="4.5" width="0.127" layer="21"/>
<wire x1="9" y1="4.5" x2="7.938" y2="4.5" width="0.127" layer="21"/>
<wire x1="-4" y1="-4.5" x2="-1.684" y2="-4.5" width="0.127" layer="21"/>
<wire x1="1.588" y1="-4.5" x2="4.666" y2="-4.5" width="0.127" layer="21"/>
<wire x1="7.938" y1="-4.5" x2="10.254" y2="-4.5" width="0.127" layer="21"/>
<smd name="PWR1" x="0" y="5.5" dx="2.4" dy="2" layer="1"/>
<smd name="PWR2" x="6.2" y="5.5" dx="2.4" dy="2" layer="1"/>
<smd name="GNDBREAK" x="6.2" y="-5.5" dx="2.4" dy="2" layer="1"/>
<smd name="GND" x="0" y="-5.5" dx="2.4" dy="2" layer="1"/>
<text x="0.762" y="2.794" size="1.4224" layer="21" ratio="12" rot="R90">+</text>
<text x="-1.016" y="-3.81" size="0.8128" layer="21">GND</text>
<hole x="0" y="0" drill="1.6"/>
<hole x="4.5" y="0" drill="1.8"/>
<polygon width="0.0254" layer="41" spacing="0.254">
<vertex x="1.27" y="-5.7404"/>
<vertex x="1.27" y="-5.2578"/>
<vertex x="1.2954" y="-5.2578"/>
<vertex x="1.2954" y="-5.7404"/>
</polygon>
<polygon width="0.0254" layer="41" spacing="0.254">
<vertex x="-0.254" y="-4.4196"/>
<vertex x="0.2286" y="-4.4196"/>
<vertex x="0.2286" y="-4.445"/>
<vertex x="-0.254" y="-4.445"/>
</polygon>
<polygon width="0.0254" layer="41" spacing="0.254">
<vertex x="4.9022" y="-5.7404"/>
<vertex x="4.9022" y="-5.2578"/>
<vertex x="4.9276" y="-5.2578"/>
<vertex x="4.9276" y="-5.7404"/>
</polygon>
<polygon width="0.0254" layer="41" spacing="0.254">
<vertex x="6.4262" y="-4.445"/>
<vertex x="5.9436" y="-4.445"/>
<vertex x="5.9436" y="-4.4196"/>
<vertex x="6.4262" y="-4.4196"/>
</polygon>
</package>
</packages>
<packages3d>
<package3d name="2X20" urn="urn:adsk.eagle:package:6240778/1" type="box" library_version="2">
<description>&lt;b&gt;PIN HEADER&lt;/b&gt;</description>
<packageinstances>
<packageinstance name="2X20"/>
</packageinstances>
</package3d>
<package3d name="2X20-BIG" urn="urn:adsk.eagle:package:6240780/1" type="box" library_version="2">
<packageinstances>
<packageinstance name="2X20-BIG"/>
</packageinstances>
</package3d>
<package3d name="PJ-102A" urn="urn:adsk.eagle:package:6240341/1" type="box" library_version="2">
<packageinstances>
<packageinstance name="PJ-102A"/>
</packageinstances>
</package3d>
<package3d name="DCJACK_2MM_SMT" urn="urn:adsk.eagle:package:6240730/1" type="box" library_version="2">
<description>2.0/2.1mm DC Jack - SMT
&lt;p&gt;4UConnector: 03267&lt;/p&gt;
&lt;p&gt;Note: Small tRestrict polygon's were added to the ground pads to improve solderability when this part is used in combination with a ground pour.  By default, Eagle will product four large bridges to the ground pour significantly increasing the heat distribution on the pads and preventing lead-free solder from reflowing in certain situations.  For more details, see: http://www.microbuilder.eu/Blog/09-12-14/Reducing_Thermals_for_Large_Pads_in_Eagle.aspx&lt;/p&gt;</description>
<packageinstances>
<packageinstance name="DCJACK_2MM_SMT"/>
</packageinstances>
</package3d>
</packages3d>
<symbols>
<symbol name="PINH2X20" urn="urn:adsk.eagle:symbol:6239577/1" library_version="2">
<wire x1="-6.35" y1="-27.94" x2="8.89" y2="-27.94" width="0.4064" layer="94"/>
<wire x1="8.89" y1="-27.94" x2="8.89" y2="25.4" width="0.4064" layer="94"/>
<wire x1="8.89" y1="25.4" x2="-6.35" y2="25.4" width="0.4064" layer="94"/>
<wire x1="-6.35" y1="25.4" x2="-6.35" y2="-27.94" width="0.4064" layer="94"/>
<text x="-6.35" y="26.035" size="1.778" layer="95">&gt;NAME</text>
<text x="-6.35" y="-30.48" size="1.778" layer="96">&gt;VALUE</text>
<pin name="1" x="-2.54" y="22.86" visible="pad" length="short" direction="pas" function="dot"/>
<pin name="2" x="5.08" y="22.86" visible="pad" length="short" direction="pas" function="dot" rot="R180"/>
<pin name="3" x="-2.54" y="20.32" visible="pad" length="short" direction="pas" function="dot"/>
<pin name="4" x="5.08" y="20.32" visible="pad" length="short" direction="pas" function="dot" rot="R180"/>
<pin name="5" x="-2.54" y="17.78" visible="pad" length="short" direction="pas" function="dot"/>
<pin name="6" x="5.08" y="17.78" visible="pad" length="short" direction="pas" function="dot" rot="R180"/>
<pin name="7" x="-2.54" y="15.24" visible="pad" length="short" direction="pas" function="dot"/>
<pin name="8" x="5.08" y="15.24" visible="pad" length="short" direction="pas" function="dot" rot="R180"/>
<pin name="9" x="-2.54" y="12.7" visible="pad" length="short" direction="pas" function="dot"/>
<pin name="10" x="5.08" y="12.7" visible="pad" length="short" direction="pas" function="dot" rot="R180"/>
<pin name="11" x="-2.54" y="10.16" visible="pad" length="short" direction="pas" function="dot"/>
<pin name="12" x="5.08" y="10.16" visible="pad" length="short" direction="pas" function="dot" rot="R180"/>
<pin name="13" x="-2.54" y="7.62" visible="pad" length="short" direction="pas" function="dot"/>
<pin name="14" x="5.08" y="7.62" visible="pad" length="short" direction="pas" function="dot" rot="R180"/>
<pin name="15" x="-2.54" y="5.08" visible="pad" length="short" direction="pas" function="dot"/>
<pin name="16" x="5.08" y="5.08" visible="pad" length="short" direction="pas" function="dot" rot="R180"/>
<pin name="17" x="-2.54" y="2.54" visible="pad" length="short" direction="pas" function="dot"/>
<pin name="18" x="5.08" y="2.54" visible="pad" length="short" direction="pas" function="dot" rot="R180"/>
<pin name="19" x="-2.54" y="0" visible="pad" length="short" direction="pas" function="dot"/>
<pin name="20" x="5.08" y="0" visible="pad" length="short" direction="pas" function="dot" rot="R180"/>
<pin name="21" x="-2.54" y="-2.54" visible="pad" length="short" direction="pas" function="dot"/>
<pin name="22" x="5.08" y="-2.54" visible="pad" length="short" direction="pas" function="dot" rot="R180"/>
<pin name="23" x="-2.54" y="-5.08" visible="pad" length="short" direction="pas" function="dot"/>
<pin name="24" x="5.08" y="-5.08" visible="pad" length="short" direction="pas" function="dot" rot="R180"/>
<pin name="25" x="-2.54" y="-7.62" visible="pad" length="short" direction="pas" function="dot"/>
<pin name="26" x="5.08" y="-7.62" visible="pad" length="short" direction="pas" function="dot" rot="R180"/>
<pin name="27" x="-2.54" y="-10.16" visible="pad" length="short" direction="pas" function="dot"/>
<pin name="28" x="5.08" y="-10.16" visible="pad" length="short" direction="pas" function="dot" rot="R180"/>
<pin name="29" x="-2.54" y="-12.7" visible="pad" length="short" direction="pas" function="dot"/>
<pin name="30" x="5.08" y="-12.7" visible="pad" length="short" direction="pas" function="dot" rot="R180"/>
<pin name="31" x="-2.54" y="-15.24" visible="pad" length="short" direction="pas" function="dot"/>
<pin name="32" x="5.08" y="-15.24" visible="pad" length="short" direction="pas" function="dot" rot="R180"/>
<pin name="33" x="-2.54" y="-17.78" visible="pad" length="short" direction="pas" function="dot"/>
<pin name="34" x="5.08" y="-17.78" visible="pad" length="short" direction="pas" function="dot" rot="R180"/>
<pin name="35" x="-2.54" y="-20.32" visible="pad" length="short" direction="pas" function="dot"/>
<pin name="36" x="5.08" y="-20.32" visible="pad" length="short" direction="pas" function="dot" rot="R180"/>
<pin name="37" x="-2.54" y="-22.86" visible="pad" length="short" direction="pas" function="dot"/>
<pin name="38" x="5.08" y="-22.86" visible="pad" length="short" direction="pas" function="dot" rot="R180"/>
<pin name="39" x="-2.54" y="-25.4" visible="pad" length="short" direction="pas" function="dot"/>
<pin name="40" x="5.08" y="-25.4" visible="pad" length="short" direction="pas" function="dot" rot="R180"/>
</symbol>
<symbol name="POWERJACK-1" urn="urn:adsk.eagle:symbol:6239483/1" library_version="2">
<wire x1="2.54" y1="3.175" x2="0" y2="3.175" width="0.254" layer="94"/>
<wire x1="0" y1="3.175" x2="-1.27" y2="2.54" width="0.254" layer="94"/>
<wire x1="-1.27" y1="2.54" x2="0" y2="1.905" width="0.254" layer="94"/>
<wire x1="0" y1="1.905" x2="2.54" y2="1.905" width="0.254" layer="94"/>
<wire x1="2.54" y1="1.905" x2="2.54" y2="3.175" width="0.254" layer="94"/>
<wire x1="2.54" y1="0" x2="2.54" y2="-1.27" width="0.254" layer="94"/>
<wire x1="2.54" y1="-2.54" x2="1.27" y2="-2.54" width="0.254" layer="94"/>
<wire x1="1.27" y1="-2.54" x2="0" y2="-1.27" width="0.254" layer="94"/>
<wire x1="0" y1="-1.27" x2="-1.27" y2="-2.54" width="0.254" layer="94"/>
<text x="-2.54" y="5.08" size="1.27" layer="95">&gt;NAME</text>
<pin name="TIP" x="5.08" y="2.54" visible="off" length="short" rot="R180"/>
<pin name="RING" x="5.08" y="-2.54" visible="off" length="short" rot="R180"/>
<pin name="RING_SW" x="5.08" y="0" visible="off" length="short" rot="R180"/>
</symbol>
</symbols>
<devicesets>
<deviceset name="PINHD-2X20" urn="urn:adsk.eagle:component:6241069/1" prefix="JP" uservalue="yes" library_version="2">
<description>&lt;b&gt;PIN HEADER&lt;/b&gt;</description>
<gates>
<gate name="A" symbol="PINH2X20" x="0" y="0"/>
</gates>
<devices>
<device name="" package="2X20">
<connects>
<connect gate="A" pin="1" pad="1"/>
<connect gate="A" pin="10" pad="10"/>
<connect gate="A" pin="11" pad="11"/>
<connect gate="A" pin="12" pad="12"/>
<connect gate="A" pin="13" pad="13"/>
<connect gate="A" pin="14" pad="14"/>
<connect gate="A" pin="15" pad="15"/>
<connect gate="A" pin="16" pad="16"/>
<connect gate="A" pin="17" pad="17"/>
<connect gate="A" pin="18" pad="18"/>
<connect gate="A" pin="19" pad="19"/>
<connect gate="A" pin="2" pad="2"/>
<connect gate="A" pin="20" pad="20"/>
<connect gate="A" pin="21" pad="21"/>
<connect gate="A" pin="22" pad="22"/>
<connect gate="A" pin="23" pad="23"/>
<connect gate="A" pin="24" pad="24"/>
<connect gate="A" pin="25" pad="25"/>
<connect gate="A" pin="26" pad="26"/>
<connect gate="A" pin="27" pad="27"/>
<connect gate="A" pin="28" pad="28"/>
<connect gate="A" pin="29" pad="29"/>
<connect gate="A" pin="3" pad="3"/>
<connect gate="A" pin="30" pad="30"/>
<connect gate="A" pin="31" pad="31"/>
<connect gate="A" pin="32" pad="32"/>
<connect gate="A" pin="33" pad="33"/>
<connect gate="A" pin="34" pad="34"/>
<connect gate="A" pin="35" pad="35"/>
<connect gate="A" pin="36" pad="36"/>
<connect gate="A" pin="37" pad="37"/>
<connect gate="A" pin="38" pad="38"/>
<connect gate="A" pin="39" pad="39"/>
<connect gate="A" pin="4" pad="4"/>
<connect gate="A" pin="40" pad="40"/>
<connect gate="A" pin="5" pad="5"/>
<connect gate="A" pin="6" pad="6"/>
<connect gate="A" pin="7" pad="7"/>
<connect gate="A" pin="8" pad="8"/>
<connect gate="A" pin="9" pad="9"/>
</connects>
<package3dinstances>
<package3dinstance package3d_urn="urn:adsk.eagle:package:6240778/1"/>
</package3dinstances>
<technologies>
<technology name=""/>
</technologies>
</device>
<device name="-BIG" package="2X20-BIG">
<connects>
<connect gate="A" pin="1" pad="1"/>
<connect gate="A" pin="10" pad="10"/>
<connect gate="A" pin="11" pad="11"/>
<connect gate="A" pin="12" pad="12"/>
<connect gate="A" pin="13" pad="13"/>
<connect gate="A" pin="14" pad="14"/>
<connect gate="A" pin="15" pad="15"/>
<connect gate="A" pin="16" pad="16"/>
<connect gate="A" pin="17" pad="17"/>
<connect gate="A" pin="18" pad="18"/>
<connect gate="A" pin="19" pad="19"/>
<connect gate="A" pin="2" pad="2"/>
<connect gate="A" pin="20" pad="20"/>
<connect gate="A" pin="21" pad="21"/>
<connect gate="A" pin="22" pad="22"/>
<connect gate="A" pin="23" pad="23"/>
<connect gate="A" pin="24" pad="24"/>
<connect gate="A" pin="25" pad="25"/>
<connect gate="A" pin="26" pad="26"/>
<connect gate="A" pin="27" pad="27"/>
<connect gate="A" pin="28" pad="28"/>
<connect gate="A" pin="29" pad="29"/>
<connect gate="A" pin="3" pad="3"/>
<connect gate="A" pin="30" pad="30"/>
<connect gate="A" pin="31" pad="31"/>
<connect gate="A" pin="32" pad="32"/>
<connect gate="A" pin="33" pad="33"/>
<connect gate="A" pin="34" pad="34"/>
<connect gate="A" pin="35" pad="35"/>
<connect gate="A" pin="36" pad="36"/>
<connect gate="A" pin="37" pad="37"/>
<connect gate="A" pin="38" pad="38"/>
<connect gate="A" pin="39" pad="39"/>
<connect gate="A" pin="4" pad="4"/>
<connect gate="A" pin="40" pad="40"/>
<connect gate="A" pin="5" pad="5"/>
<connect gate="A" pin="6" pad="6"/>
<connect gate="A" pin="7" pad="7"/>
<connect gate="A" pin="8" pad="8"/>
<connect gate="A" pin="9" pad="9"/>
</connects>
<package3dinstances>
<package3dinstance package3d_urn="urn:adsk.eagle:package:6240780/1"/>
</package3dinstances>
<technologies>
<technology name=""/>
</technologies>
</device>
</devices>
</deviceset>
<deviceset name="2.1MMJACK" urn="urn:adsk.eagle:component:6240983/1" library_version="2">
<description>2.1mm x 5.5mm THM DC jack with internal switch. Digikey part #PJ-102A, 4UCON part #05537 &lt;br&gt;
2.1mm x 5.5mm SMT DC jack with internal switch. Digikey part #PJ-002A-SMT, 4UCON part #03267
&lt;p&gt;By microbuilder.eu &amp; adafruit.com&lt;/p&gt;</description>
<gates>
<gate name="G$1" symbol="POWERJACK-1" x="0" y="0"/>
</gates>
<devices>
<device name="THM" package="PJ-102A">
<connects>
<connect gate="G$1" pin="RING" pad="RING"/>
<connect gate="G$1" pin="RING_SW" pad="RING_SW"/>
<connect gate="G$1" pin="TIP" pad="TIP"/>
</connects>
<package3dinstances>
<package3dinstance package3d_urn="urn:adsk.eagle:package:6240341/1"/>
</package3dinstances>
<technologies>
<technology name=""/>
</technologies>
</device>
<device name="SMT" package="DCJACK_2MM_SMT">
<connects>
<connect gate="G$1" pin="RING" pad="GND"/>
<connect gate="G$1" pin="RING_SW" pad="GNDBREAK"/>
<connect gate="G$1" pin="TIP" pad="PWR2"/>
</connects>
<package3dinstances>
<package3dinstance package3d_urn="urn:adsk.eagle:package:6240730/1"/>
</package3dinstances>
<technologies>
<technology name=""/>
</technologies>
</device>
</devices>
</deviceset>
</devicesets>
</library>
<library name="SnapEDA-Library">
<packages>
<package name="TE_5745781-4">
<wire x1="-15.4051" y1="3.1242" x2="15.4051" y2="3.1242" width="0.127" layer="51"/>
<wire x1="15.4051" y1="3.1242" x2="15.4051" y2="-9.525" width="0.127" layer="51"/>
<wire x1="15.4051" y1="-15.6718" x2="15.4051" y2="-9.525" width="0.127" layer="51"/>
<wire x1="-15.4051" y1="-9.525" x2="-15.4051" y2="-15.6718" width="0.127" layer="51"/>
<wire x1="-15.4051" y1="-9.525" x2="-15.4051" y2="3.1242" width="0.127" layer="51"/>
<wire x1="-15.4051" y1="-15.6718" x2="15.4051" y2="-15.6718" width="0.127" layer="51"/>
<wire x1="-15.4051" y1="-9.525" x2="15.4051" y2="-9.525" width="0.127" layer="51"/>
<wire x1="-15.4051" y1="3.1242" x2="15.4051" y2="3.1242" width="0.127" layer="21"/>
<wire x1="-15.4051" y1="-9.525" x2="-15.4051" y2="3.1242" width="0.127" layer="21"/>
<wire x1="15.4051" y1="3.1242" x2="15.4051" y2="-9.525" width="0.127" layer="21"/>
<wire x1="-15.4051" y1="-9.525" x2="15.4051" y2="-9.525" width="0.127" layer="21"/>
<wire x1="-15.6551" y1="3.3742" x2="15.6551" y2="3.3742" width="0.05" layer="39"/>
<wire x1="15.6551" y1="3.3742" x2="15.6551" y2="-15.9218" width="0.05" layer="39"/>
<wire x1="15.6551" y1="-15.9218" x2="-15.6551" y2="-15.9218" width="0.05" layer="39"/>
<wire x1="-15.6551" y1="-15.9218" x2="-15.6551" y2="3.3742" width="0.05" layer="39"/>
<text x="-15.24" y="3.81" size="1.27" layer="25">&gt;NAME</text>
<text x="-15.24" y="-17.78" size="1.27" layer="27">&gt;VALUE</text>
<circle x="5.5" y="3.9" radius="0.1" width="0.2" layer="21"/>
<circle x="5.5" y="3.9" radius="0.1" width="0.2" layer="51"/>
<pad name="5" x="-5.4864" y="1.4224" drill="1.0414"/>
<hole x="-12.4968" y="0" drill="3.048"/>
<hole x="12.4968" y="0" drill="3.048"/>
<pad name="4" x="-2.7432" y="1.4224" drill="1.0414"/>
<pad name="3" x="0" y="1.4224" drill="1.0414"/>
<pad name="2" x="2.7432" y="1.4224" drill="1.0414"/>
<pad name="1" x="5.4864" y="1.4224" drill="1.0414" shape="square"/>
<pad name="9" x="-4.1148" y="-1.4224" drill="1.0414"/>
<pad name="8" x="-1.3716" y="-1.4224" drill="1.0414"/>
<pad name="7" x="1.3716" y="-1.4224" drill="1.0414"/>
<pad name="6" x="4.1148" y="-1.4224" drill="1.0414"/>
</package>
<package name="691137710002">
<wire x1="-5" y1="3.5" x2="5" y2="3.5" width="0.127" layer="21"/>
<wire x1="5" y1="3.5" x2="5" y2="-4" width="0.127" layer="21"/>
<wire x1="5" y1="-4" x2="-5" y2="-4" width="0.127" layer="21"/>
<wire x1="-5" y1="-4" x2="-5" y2="3.5" width="0.127" layer="21"/>
<polygon width="0.127" layer="39">
<vertex x="-5.25" y="3.75"/>
<vertex x="5.25" y="3.75"/>
<vertex x="5.25" y="-4.25"/>
<vertex x="-5.25" y="-4.25"/>
</polygon>
<text x="-2.4" y="4.3" size="1.27" layer="25">&gt;NAME</text>
<text x="-2.6" y="-5.9" size="1.27" layer="27">&gt;VALUE</text>
<text x="-4.3" y="0.7" size="1.27" layer="48">1</text>
<pad name="1" x="-2.5" y="0" drill="1.3"/>
<pad name="2" x="2.5" y="0" drill="1.3"/>
</package>
</packages>
<symbols>
<symbol name="5745781-4">
<wire x1="-5.08" y1="7.62" x2="5.08" y2="7.62" width="0.1524" layer="94"/>
<wire x1="5.08" y1="7.62" x2="5.08" y2="-7.62" width="0.1524" layer="94"/>
<wire x1="5.08" y1="-7.62" x2="-5.08" y2="-7.62" width="0.1524" layer="94"/>
<wire x1="-5.08" y1="-7.62" x2="-5.08" y2="7.62" width="0.1524" layer="94"/>
<text x="-5.08" y="8.382" size="1.778" layer="95">&gt;NAME</text>
<text x="-5.08" y="-10.16" size="1.778" layer="96">&gt;VALUE</text>
<pin name="1" x="-10.16" y="5.08" length="middle" direction="pas"/>
<pin name="2" x="-10.16" y="2.54" length="middle" direction="pas"/>
<pin name="3" x="-10.16" y="0" length="middle" direction="pas"/>
<pin name="4" x="-10.16" y="-2.54" length="middle" direction="pas"/>
<pin name="5" x="-10.16" y="-5.08" length="middle" direction="pas"/>
<pin name="6" x="10.16" y="5.08" length="middle" direction="pas" rot="R180"/>
<pin name="7" x="10.16" y="2.54" length="middle" direction="pas" rot="R180"/>
<pin name="8" x="10.16" y="0" length="middle" direction="pas" rot="R180"/>
<pin name="9" x="10.16" y="-2.54" length="middle" direction="pas" rot="R180"/>
</symbol>
<symbol name="2-4">
<wire x1="-1.651" y1="3.429" x2="-1.651" y2="1.651" width="0.254" layer="94" curve="180"/>
<text x="-1.27" y="-3.81" size="1.778" layer="96">&gt;VALUE</text>
<wire x1="-1.651" y1="0.889" x2="-1.651" y2="-0.889" width="0.254" layer="94" curve="180"/>
<text x="-1.27" y="3.81" size="1.778" layer="95">&gt;NAME</text>
<pin name="1" x="-5.08" y="2.54" visible="pad" length="short" direction="pas"/>
<pin name="2" x="-5.08" y="0" visible="pad" length="short" direction="pas"/>
</symbol>
</symbols>
<devicesets>
<deviceset name="5745781-4" prefix="J">
<description>Conn D-Subminiature SKT 9 POS 2.74mm Solder RA Thru-Hole 9 Terminal 1 Port Tray</description>
<gates>
<gate name="G$1" symbol="5745781-4" x="0" y="0"/>
</gates>
<devices>
<device name="" package="TE_5745781-4">
<connects>
<connect gate="G$1" pin="1" pad="1"/>
<connect gate="G$1" pin="2" pad="2"/>
<connect gate="G$1" pin="3" pad="3"/>
<connect gate="G$1" pin="4" pad="4"/>
<connect gate="G$1" pin="5" pad="5"/>
<connect gate="G$1" pin="6" pad="6"/>
<connect gate="G$1" pin="7" pad="7"/>
<connect gate="G$1" pin="8" pad="8"/>
<connect gate="G$1" pin="9" pad="9"/>
</connects>
<technologies>
<technology name="">
<attribute name="MANUFACTURER" value="TE Connectivity"/>
<attribute name="MAXIMUM_PACKAGE_HEIGHT" value="12.93mm"/>
<attribute name="PARTREV" value="A1"/>
<attribute name="STANDARD" value="Manufacturer Recommendations"/>
</technology>
</technologies>
</device>
</devices>
</deviceset>
<deviceset name="691137710002" prefix="J">
<description>&lt;br&gt;&lt;b&gt;SERIE 1377 - 5.00 MM - HORIZONTAL CABLE ENTRY WITH  PRESSURE CLAMP - GLOW WIRE PLASTIC - WR-TBL&lt;/b&gt;
&lt;BR&gt;
&lt;br&gt;&lt;a href="http://katalog.we-online.de/media/images/v2/Family_WR-TBL1_6911377100xx.jpg"&gt;
&lt;img src="http://katalog.we-online.de/media/images/v2/Family_WR-TBL1_6911377100xx.jpg" width="320"&gt;&lt;/a&gt;&lt;p&gt;
Details see: &lt;a href="http://katalog.we-online.de/en/em/TBL_5_00_1377_HORIZONTAL_ENTRY_W_PRESSURE_CLAMP_GLOW_WIRE_6911377100xx"&gt;http://katalog.we-online.de/en/em/TBL_5_00_1377_HORIZONTAL_ENTRY_W_PRESSURE_CLAMP_GLOW_WIRE_6911377100xx&lt;/a&gt;&lt;p&gt;


Created by Yingchun,Shan&lt;br&gt;
2016(C) Wurth Elektronik</description>
<gates>
<gate name="G$1" symbol="2-4" x="0" y="0"/>
</gates>
<devices>
<device name="" package="691137710002">
<connects>
<connect gate="G$1" pin="1" pad="1"/>
<connect gate="G$1" pin="2" pad="2"/>
</connects>
<technologies>
<technology name=""/>
</technologies>
</device>
</devices>
</deviceset>
</devicesets>
</library>
</libraries>
<attributes>
</attributes>
<variantdefs>
</variantdefs>
<classes>
<class number="0" name="default" width="0" drill="0">
<clearance class="0" value="0.205"/>
</class>
</classes>
<parts>
<part name="FRAME1" library="frames" library_urn="urn:adsk.eagle:library:229" deviceset="FRAME_A_L" device=""/>
<part name="TO_ECU_DOUTS" library="adafruit" library_urn="urn:adsk.eagle:library:420" deviceset="PINHD-2X20" device="" package3d_urn="urn:adsk.eagle:package:6240778/1"/>
<part name="PUMPPOWER_FOR_4$1" library="adafruit" library_urn="urn:adsk.eagle:library:420" deviceset="2.1MMJACK" device="THM" package3d_urn="urn:adsk.eagle:package:6240341/1"/>
<part name="PUMPPOWER_FOR_4$2" library="adafruit" library_urn="urn:adsk.eagle:library:420" deviceset="2.1MMJACK" device="THM" package3d_urn="urn:adsk.eagle:package:6240341/1"/>
<part name="PUMPPOWER_FOR_4$3" library="adafruit" library_urn="urn:adsk.eagle:library:420" deviceset="2.1MMJACK" device="THM" package3d_urn="urn:adsk.eagle:package:6240341/1"/>
<part name="PUMPPOWER_FOR_4$4" library="adafruit" library_urn="urn:adsk.eagle:library:420" deviceset="2.1MMJACK" device="THM" package3d_urn="urn:adsk.eagle:package:6240341/1"/>
<part name="REW_PUMP@1" library="SnapEDA-Library" deviceset="5745781-4" device=""/>
<part name="TERMINALBLOCK_POWER_1POS" library="SnapEDA-Library" deviceset="691137710002" device=""/>
<part name="REW_PUMP@2" library="SnapEDA-Library" deviceset="5745781-4" device=""/>
<part name="REW_PUMP@3" library="SnapEDA-Library" deviceset="5745781-4" device=""/>
<part name="REW_PUMP@4" library="SnapEDA-Library" deviceset="5745781-4" device=""/>
<part name="REW_PUMP@5" library="SnapEDA-Library" deviceset="5745781-4" device=""/>
<part name="REW_PUMP@6" library="SnapEDA-Library" deviceset="5745781-4" device=""/>
<part name="REW_PUMP@7" library="SnapEDA-Library" deviceset="5745781-4" device=""/>
<part name="REW_PUMP@8" library="SnapEDA-Library" deviceset="5745781-4" device=""/>
<part name="REW_PUMP@9" library="SnapEDA-Library" deviceset="5745781-4" device=""/>
<part name="REW_PUMP@10" library="SnapEDA-Library" deviceset="5745781-4" device=""/>
<part name="REW_PUMP@11" library="SnapEDA-Library" deviceset="5745781-4" device=""/>
<part name="REW_PUMP@12" library="SnapEDA-Library" deviceset="5745781-4" device=""/>
<part name="REW_PUMP@13" library="SnapEDA-Library" deviceset="5745781-4" device=""/>
<part name="REW_PUMP@14" library="SnapEDA-Library" deviceset="5745781-4" device=""/>
<part name="REW_PUMP@15" library="SnapEDA-Library" deviceset="5745781-4" device=""/>
<part name="REW_PUMP@16" library="SnapEDA-Library" deviceset="5745781-4" device=""/>
</parts>
<sheets>
<sheet>
<plain>
</plain>
<instances>
<instance part="FRAME1" gate="G$1" x="0" y="0" smashed="yes"/>
<instance part="FRAME1" gate="G$2" x="172.72" y="0" smashed="yes">
<attribute name="LAST_DATE_TIME" x="185.42" y="1.27" size="2.54" layer="94"/>
<attribute name="SHEET" x="259.08" y="1.27" size="2.54" layer="94"/>
<attribute name="DRAWING_NAME" x="190.5" y="19.05" size="2.54" layer="94"/>
</instance>
<instance part="TO_ECU_DOUTS" gate="A" x="231.14" y="129.54" smashed="yes">
<attribute name="NAME" x="224.79" y="155.575" size="1.778" layer="95"/>
<attribute name="VALUE" x="224.79" y="99.06" size="1.778" layer="96"/>
</instance>
<instance part="PUMPPOWER_FOR_4$1" gate="G$1" x="147.32" y="144.78" smashed="yes" rot="R90">
<attribute name="NAME" x="142.24" y="142.24" size="1.27" layer="95" rot="R90"/>
</instance>
<instance part="PUMPPOWER_FOR_4$2" gate="G$1" x="160.02" y="144.78" smashed="yes" rot="R90">
<attribute name="NAME" x="154.94" y="142.24" size="1.27" layer="95" rot="R90"/>
</instance>
<instance part="PUMPPOWER_FOR_4$3" gate="G$1" x="172.72" y="144.78" smashed="yes" rot="R90">
<attribute name="NAME" x="167.64" y="142.24" size="1.27" layer="95" rot="R90"/>
</instance>
<instance part="PUMPPOWER_FOR_4$4" gate="G$1" x="185.42" y="144.78" smashed="yes" rot="R90">
<attribute name="NAME" x="180.34" y="142.24" size="1.27" layer="95" rot="R90"/>
</instance>
<instance part="REW_PUMP@1" gate="G$1" x="33.02" y="185.42" smashed="yes">
<attribute name="NAME" x="27.94" y="193.802" size="1.778" layer="95"/>
<attribute name="VALUE" x="27.94" y="175.26" size="1.778" layer="96"/>
</instance>
<instance part="TERMINALBLOCK_POWER_1POS" gate="G$1" x="165.1" y="185.42" smashed="yes" rot="R90">
<attribute name="VALUE" x="168.91" y="184.15" size="1.778" layer="96" rot="R90"/>
<attribute name="NAME" x="161.29" y="184.15" size="1.778" layer="95" rot="R90"/>
</instance>
<instance part="REW_PUMP@2" gate="G$1" x="33.02" y="162.56" smashed="yes">
<attribute name="NAME" x="27.94" y="170.942" size="1.778" layer="95"/>
<attribute name="VALUE" x="27.94" y="152.4" size="1.778" layer="96"/>
</instance>
<instance part="REW_PUMP@3" gate="G$1" x="33.02" y="139.7" smashed="yes">
<attribute name="NAME" x="27.94" y="148.082" size="1.778" layer="95"/>
<attribute name="VALUE" x="27.94" y="129.54" size="1.778" layer="96"/>
</instance>
<instance part="REW_PUMP@4" gate="G$1" x="33.02" y="116.84" smashed="yes">
<attribute name="NAME" x="27.94" y="125.222" size="1.778" layer="95"/>
<attribute name="VALUE" x="27.94" y="106.68" size="1.778" layer="96"/>
</instance>
<instance part="REW_PUMP@5" gate="G$1" x="33.02" y="93.98" smashed="yes">
<attribute name="NAME" x="27.94" y="102.362" size="1.778" layer="95"/>
<attribute name="VALUE" x="27.94" y="83.82" size="1.778" layer="96"/>
</instance>
<instance part="REW_PUMP@6" gate="G$1" x="33.02" y="71.12" smashed="yes">
<attribute name="NAME" x="27.94" y="79.502" size="1.778" layer="95"/>
<attribute name="VALUE" x="27.94" y="60.96" size="1.778" layer="96"/>
</instance>
<instance part="REW_PUMP@7" gate="G$1" x="33.02" y="48.26" smashed="yes">
<attribute name="NAME" x="27.94" y="56.642" size="1.778" layer="95"/>
<attribute name="VALUE" x="27.94" y="38.1" size="1.778" layer="96"/>
</instance>
<instance part="REW_PUMP@8" gate="G$1" x="33.02" y="25.4" smashed="yes">
<attribute name="NAME" x="27.94" y="33.782" size="1.778" layer="95"/>
<attribute name="VALUE" x="27.94" y="15.24" size="1.778" layer="96"/>
</instance>
<instance part="REW_PUMP@9" gate="G$1" x="76.2" y="185.42" smashed="yes">
<attribute name="NAME" x="71.12" y="193.802" size="1.778" layer="95"/>
<attribute name="VALUE" x="71.12" y="175.26" size="1.778" layer="96"/>
</instance>
<instance part="REW_PUMP@10" gate="G$1" x="76.2" y="162.56" smashed="yes">
<attribute name="NAME" x="71.12" y="170.942" size="1.778" layer="95"/>
<attribute name="VALUE" x="71.12" y="152.4" size="1.778" layer="96"/>
</instance>
<instance part="REW_PUMP@11" gate="G$1" x="76.2" y="139.7" smashed="yes">
<attribute name="NAME" x="71.12" y="148.082" size="1.778" layer="95"/>
<attribute name="VALUE" x="71.12" y="129.54" size="1.778" layer="96"/>
</instance>
<instance part="REW_PUMP@12" gate="G$1" x="76.2" y="116.84" smashed="yes">
<attribute name="NAME" x="71.12" y="125.222" size="1.778" layer="95"/>
<attribute name="VALUE" x="71.12" y="106.68" size="1.778" layer="96"/>
</instance>
<instance part="REW_PUMP@13" gate="G$1" x="76.2" y="93.98" smashed="yes">
<attribute name="NAME" x="71.12" y="102.362" size="1.778" layer="95"/>
<attribute name="VALUE" x="71.12" y="83.82" size="1.778" layer="96"/>
</instance>
<instance part="REW_PUMP@14" gate="G$1" x="76.2" y="71.12" smashed="yes">
<attribute name="NAME" x="71.12" y="79.502" size="1.778" layer="95"/>
<attribute name="VALUE" x="71.12" y="60.96" size="1.778" layer="96"/>
</instance>
<instance part="REW_PUMP@15" gate="G$1" x="76.2" y="48.26" smashed="yes">
<attribute name="NAME" x="71.12" y="56.642" size="1.778" layer="95"/>
<attribute name="VALUE" x="71.12" y="38.1" size="1.778" layer="96"/>
</instance>
<instance part="REW_PUMP@16" gate="G$1" x="76.2" y="25.4" smashed="yes">
<attribute name="NAME" x="71.12" y="33.782" size="1.778" layer="95"/>
<attribute name="VALUE" x="71.12" y="15.24" size="1.778" layer="96"/>
</instance>
</instances>
<busses>
</busses>
<nets>
<net name="N$1" class="0">
<segment>
<pinref part="TERMINALBLOCK_POWER_1POS" gate="G$1" pin="1"/>
<wire x1="162.56" y1="180.34" x2="162.56" y2="172.72" width="0.1524" layer="91"/>
<wire x1="162.56" y1="172.72" x2="157.48" y2="172.72" width="0.1524" layer="91"/>
<pinref part="PUMPPOWER_FOR_4$1" gate="G$1" pin="TIP"/>
<wire x1="157.48" y1="172.72" x2="144.78" y2="172.72" width="0.1524" layer="91"/>
<wire x1="144.78" y1="172.72" x2="144.78" y2="149.86" width="0.1524" layer="91"/>
<pinref part="PUMPPOWER_FOR_4$2" gate="G$1" pin="TIP"/>
<wire x1="157.48" y1="149.86" x2="157.48" y2="172.72" width="0.1524" layer="91"/>
<junction x="157.48" y="172.72"/>
<pinref part="PUMPPOWER_FOR_4$3" gate="G$1" pin="TIP"/>
<wire x1="170.18" y1="149.86" x2="170.18" y2="172.72" width="0.1524" layer="91"/>
<wire x1="170.18" y1="172.72" x2="162.56" y2="172.72" width="0.1524" layer="91"/>
<junction x="162.56" y="172.72"/>
<pinref part="PUMPPOWER_FOR_4$4" gate="G$1" pin="TIP"/>
<wire x1="182.88" y1="149.86" x2="182.88" y2="172.72" width="0.1524" layer="91"/>
<wire x1="182.88" y1="172.72" x2="170.18" y2="172.72" width="0.1524" layer="91"/>
<junction x="170.18" y="172.72"/>
</segment>
</net>
<net name="GND" class="0">
<segment>
<pinref part="REW_PUMP@1" gate="G$1" pin="9"/>
<wire x1="43.18" y1="182.88" x2="55.88" y2="182.88" width="0.1524" layer="91"/>
<label x="45.72" y="182.88" size="1.778" layer="95"/>
</segment>
<segment>
<wire x1="43.18" y1="160.02" x2="55.88" y2="160.02" width="0.1524" layer="91"/>
<pinref part="REW_PUMP@2" gate="G$1" pin="9"/>
<label x="50.8" y="160.02" size="1.778" layer="95"/>
</segment>
<segment>
<wire x1="43.18" y1="137.16" x2="55.88" y2="137.16" width="0.1524" layer="91"/>
<pinref part="REW_PUMP@3" gate="G$1" pin="9"/>
<label x="50.8" y="137.16" size="1.778" layer="95"/>
</segment>
<segment>
<wire x1="43.18" y1="114.3" x2="55.88" y2="114.3" width="0.1524" layer="91"/>
<pinref part="REW_PUMP@4" gate="G$1" pin="9"/>
<label x="50.8" y="114.3" size="1.778" layer="95"/>
</segment>
<segment>
<wire x1="43.18" y1="91.44" x2="55.88" y2="91.44" width="0.1524" layer="91"/>
<pinref part="REW_PUMP@5" gate="G$1" pin="9"/>
<label x="50.8" y="91.44" size="1.778" layer="95"/>
</segment>
<segment>
<wire x1="43.18" y1="68.58" x2="55.88" y2="68.58" width="0.1524" layer="91"/>
<pinref part="REW_PUMP@6" gate="G$1" pin="9"/>
<label x="50.8" y="68.58" size="1.778" layer="95"/>
</segment>
<segment>
<wire x1="43.18" y1="45.72" x2="55.88" y2="45.72" width="0.1524" layer="91"/>
<pinref part="REW_PUMP@7" gate="G$1" pin="9"/>
<label x="50.8" y="45.72" size="1.778" layer="95"/>
</segment>
<segment>
<wire x1="43.18" y1="22.86" x2="55.88" y2="22.86" width="0.1524" layer="91"/>
<pinref part="REW_PUMP@8" gate="G$1" pin="9"/>
<label x="50.8" y="22.86" size="1.778" layer="95"/>
</segment>
<segment>
<wire x1="86.36" y1="22.86" x2="99.06" y2="22.86" width="0.1524" layer="91"/>
<pinref part="REW_PUMP@16" gate="G$1" pin="9"/>
<label x="93.98" y="22.86" size="1.778" layer="95"/>
</segment>
<segment>
<wire x1="86.36" y1="45.72" x2="99.06" y2="45.72" width="0.1524" layer="91"/>
<pinref part="REW_PUMP@15" gate="G$1" pin="9"/>
<label x="93.98" y="45.72" size="1.778" layer="95"/>
</segment>
<segment>
<wire x1="86.36" y1="68.58" x2="99.06" y2="68.58" width="0.1524" layer="91"/>
<pinref part="REW_PUMP@14" gate="G$1" pin="9"/>
<label x="93.98" y="68.58" size="1.778" layer="95"/>
</segment>
<segment>
<wire x1="86.36" y1="91.44" x2="99.06" y2="91.44" width="0.1524" layer="91"/>
<pinref part="REW_PUMP@13" gate="G$1" pin="9"/>
<label x="93.98" y="91.44" size="1.778" layer="95"/>
</segment>
<segment>
<wire x1="86.36" y1="114.3" x2="99.06" y2="114.3" width="0.1524" layer="91"/>
<pinref part="REW_PUMP@12" gate="G$1" pin="9"/>
<label x="93.98" y="114.3" size="1.778" layer="95"/>
</segment>
<segment>
<wire x1="86.36" y1="137.16" x2="99.06" y2="137.16" width="0.1524" layer="91"/>
<pinref part="REW_PUMP@11" gate="G$1" pin="9"/>
<label x="93.98" y="137.16" size="1.778" layer="95"/>
</segment>
<segment>
<wire x1="86.36" y1="160.02" x2="99.06" y2="160.02" width="0.1524" layer="91"/>
<pinref part="REW_PUMP@10" gate="G$1" pin="9"/>
<label x="93.98" y="160.02" size="1.778" layer="95"/>
</segment>
<segment>
<wire x1="86.36" y1="182.88" x2="99.06" y2="182.88" width="0.1524" layer="91"/>
<pinref part="REW_PUMP@9" gate="G$1" pin="9"/>
<label x="93.98" y="182.88" size="1.778" layer="95"/>
</segment>
<segment>
<wire x1="215.9" y1="149.86" x2="228.6" y2="149.86" width="0.1524" layer="91"/>
<label x="215.9" y="149.86" size="1.778" layer="95"/>
<pinref part="TO_ECU_DOUTS" gate="A" pin="3"/>
</segment>
<segment>
<wire x1="215.9" y1="127" x2="228.6" y2="127" width="0.1524" layer="91"/>
<label x="215.9" y="127" size="1.778" layer="95"/>
<pinref part="TO_ECU_DOUTS" gate="A" pin="21"/>
</segment>
<segment>
<wire x1="215.9" y1="104.14" x2="228.6" y2="104.14" width="0.1524" layer="91"/>
<label x="215.9" y="104.14" size="1.778" layer="95"/>
<pinref part="TO_ECU_DOUTS" gate="A" pin="39"/>
</segment>
<segment>
<pinref part="TERMINALBLOCK_POWER_1POS" gate="G$1" pin="2"/>
<wire x1="165.1" y1="180.34" x2="165.1" y2="170.18" width="0.1524" layer="91"/>
<pinref part="PUMPPOWER_FOR_4$1" gate="G$1" pin="RING"/>
<wire x1="165.1" y1="170.18" x2="162.56" y2="170.18" width="0.1524" layer="91"/>
<wire x1="162.56" y1="170.18" x2="149.86" y2="170.18" width="0.1524" layer="91"/>
<wire x1="149.86" y1="170.18" x2="149.86" y2="149.86" width="0.1524" layer="91"/>
<pinref part="PUMPPOWER_FOR_4$2" gate="G$1" pin="RING"/>
<wire x1="162.56" y1="149.86" x2="162.56" y2="170.18" width="0.1524" layer="91"/>
<junction x="162.56" y="170.18"/>
<wire x1="165.1" y1="170.18" x2="175.26" y2="170.18" width="0.1524" layer="91"/>
<junction x="165.1" y="170.18"/>
<pinref part="PUMPPOWER_FOR_4$3" gate="G$1" pin="RING"/>
<wire x1="175.26" y1="170.18" x2="175.26" y2="149.86" width="0.1524" layer="91"/>
<pinref part="PUMPPOWER_FOR_4$4" gate="G$1" pin="RING"/>
<wire x1="187.96" y1="149.86" x2="187.96" y2="170.18" width="0.1524" layer="91"/>
<wire x1="187.96" y1="170.18" x2="175.26" y2="170.18" width="0.1524" layer="91"/>
<junction x="175.26" y="170.18"/>
<label x="165.1" y="177.8" size="1.778" layer="95"/>
</segment>
</net>
<net name="PUMP_SIG$1" class="0">
<segment>
<pinref part="TO_ECU_DOUTS" gate="A" pin="5"/>
<wire x1="228.6" y1="147.32" x2="208.28" y2="147.32" width="0.1524" layer="91"/>
<label x="208.28" y="147.32" size="1.778" layer="95"/>
</segment>
<segment>
<wire x1="10.16" y1="187.96" x2="22.86" y2="187.96" width="0.1524" layer="91"/>
<pinref part="REW_PUMP@1" gate="G$1" pin="2"/>
<label x="7.62" y="187.96" size="1.778" layer="95"/>
</segment>
</net>
<net name="PUMP_SIG$2" class="0">
<segment>
<wire x1="228.6" y1="144.78" x2="208.28" y2="144.78" width="0.1524" layer="91"/>
<pinref part="TO_ECU_DOUTS" gate="A" pin="7"/>
<label x="208.28" y="144.78" size="1.778" layer="95"/>
</segment>
<segment>
<wire x1="10.16" y1="165.1" x2="22.86" y2="165.1" width="0.1524" layer="91"/>
<pinref part="REW_PUMP@2" gate="G$1" pin="2"/>
<label x="7.62" y="165.1" size="1.778" layer="95"/>
</segment>
</net>
<net name="PUMP_SIG$3" class="0">
<segment>
<wire x1="228.6" y1="142.24" x2="208.28" y2="142.24" width="0.1524" layer="91"/>
<pinref part="TO_ECU_DOUTS" gate="A" pin="9"/>
<label x="208.28" y="142.24" size="1.778" layer="95"/>
</segment>
<segment>
<wire x1="10.16" y1="142.24" x2="22.86" y2="142.24" width="0.1524" layer="91"/>
<pinref part="REW_PUMP@3" gate="G$1" pin="2"/>
<label x="7.62" y="142.24" size="1.778" layer="95"/>
</segment>
</net>
<net name="PUMP_SIG$4" class="0">
<segment>
<wire x1="228.6" y1="139.7" x2="208.28" y2="139.7" width="0.1524" layer="91"/>
<pinref part="TO_ECU_DOUTS" gate="A" pin="11"/>
<label x="208.28" y="139.7" size="1.778" layer="95"/>
</segment>
<segment>
<wire x1="10.16" y1="119.38" x2="22.86" y2="119.38" width="0.1524" layer="91"/>
<pinref part="REW_PUMP@4" gate="G$1" pin="2"/>
<label x="7.62" y="119.38" size="1.778" layer="95"/>
</segment>
</net>
<net name="PUMP_SIG$5" class="0">
<segment>
<wire x1="228.6" y1="137.16" x2="208.28" y2="137.16" width="0.1524" layer="91"/>
<pinref part="TO_ECU_DOUTS" gate="A" pin="13"/>
<label x="208.28" y="137.16" size="1.778" layer="95"/>
</segment>
<segment>
<wire x1="10.16" y1="96.52" x2="22.86" y2="96.52" width="0.1524" layer="91"/>
<pinref part="REW_PUMP@5" gate="G$1" pin="2"/>
<label x="7.62" y="96.52" size="1.778" layer="95"/>
</segment>
</net>
<net name="PUMP_SIG$6" class="0">
<segment>
<wire x1="228.6" y1="134.62" x2="208.28" y2="134.62" width="0.1524" layer="91"/>
<pinref part="TO_ECU_DOUTS" gate="A" pin="15"/>
<label x="208.28" y="134.62" size="1.778" layer="95"/>
</segment>
<segment>
<wire x1="10.16" y1="73.66" x2="22.86" y2="73.66" width="0.1524" layer="91"/>
<pinref part="REW_PUMP@6" gate="G$1" pin="2"/>
<label x="7.62" y="73.66" size="1.778" layer="95"/>
</segment>
</net>
<net name="PUMP_SIG$7" class="0">
<segment>
<wire x1="228.6" y1="132.08" x2="208.28" y2="132.08" width="0.1524" layer="91"/>
<pinref part="TO_ECU_DOUTS" gate="A" pin="17"/>
<label x="208.28" y="132.08" size="1.778" layer="95"/>
</segment>
<segment>
<wire x1="10.16" y1="50.8" x2="22.86" y2="50.8" width="0.1524" layer="91"/>
<pinref part="REW_PUMP@7" gate="G$1" pin="2"/>
<label x="7.62" y="50.8" size="1.778" layer="95"/>
</segment>
</net>
<net name="PUMP_SIG$8" class="0">
<segment>
<wire x1="228.6" y1="129.54" x2="208.28" y2="129.54" width="0.1524" layer="91"/>
<pinref part="TO_ECU_DOUTS" gate="A" pin="19"/>
<label x="208.28" y="129.54" size="1.778" layer="95"/>
</segment>
<segment>
<wire x1="10.16" y1="27.94" x2="22.86" y2="27.94" width="0.1524" layer="91"/>
<pinref part="REW_PUMP@8" gate="G$1" pin="2"/>
<label x="7.62" y="27.94" size="1.778" layer="95"/>
</segment>
</net>
<net name="PUMP_SIG$9" class="0">
<segment>
<wire x1="228.6" y1="124.46" x2="208.28" y2="124.46" width="0.1524" layer="91"/>
<pinref part="TO_ECU_DOUTS" gate="A" pin="23"/>
<label x="208.28" y="124.46" size="1.778" layer="95"/>
</segment>
<segment>
<pinref part="REW_PUMP@9" gate="G$1" pin="2"/>
<wire x1="66.04" y1="187.96" x2="50.8" y2="187.96" width="0.1524" layer="91"/>
<label x="50.8" y="187.96" size="1.778" layer="95"/>
</segment>
</net>
<net name="PUMP_SIG$10" class="0">
<segment>
<wire x1="228.6" y1="121.92" x2="208.28" y2="121.92" width="0.1524" layer="91"/>
<pinref part="TO_ECU_DOUTS" gate="A" pin="25"/>
<label x="208.28" y="121.92" size="1.778" layer="95"/>
</segment>
<segment>
<wire x1="53.34" y1="165.1" x2="66.04" y2="165.1" width="0.1524" layer="91"/>
<pinref part="REW_PUMP@10" gate="G$1" pin="2"/>
<label x="50.8" y="165.1" size="1.778" layer="95"/>
</segment>
</net>
<net name="PUMP_SIG$11" class="0">
<segment>
<wire x1="228.6" y1="119.38" x2="208.28" y2="119.38" width="0.1524" layer="91"/>
<pinref part="TO_ECU_DOUTS" gate="A" pin="27"/>
<label x="208.28" y="119.38" size="1.778" layer="95"/>
</segment>
<segment>
<wire x1="53.34" y1="142.24" x2="66.04" y2="142.24" width="0.1524" layer="91"/>
<pinref part="REW_PUMP@11" gate="G$1" pin="2"/>
<label x="50.8" y="142.24" size="1.778" layer="95"/>
</segment>
</net>
<net name="PUMP_SIG$12" class="0">
<segment>
<wire x1="228.6" y1="116.84" x2="208.28" y2="116.84" width="0.1524" layer="91"/>
<pinref part="TO_ECU_DOUTS" gate="A" pin="29"/>
<label x="208.28" y="116.84" size="1.778" layer="95"/>
</segment>
<segment>
<wire x1="53.34" y1="119.38" x2="66.04" y2="119.38" width="0.1524" layer="91"/>
<pinref part="REW_PUMP@12" gate="G$1" pin="2"/>
<label x="50.8" y="119.38" size="1.778" layer="95"/>
</segment>
</net>
<net name="PUMP_SIG$13" class="0">
<segment>
<wire x1="228.6" y1="114.3" x2="208.28" y2="114.3" width="0.1524" layer="91"/>
<pinref part="TO_ECU_DOUTS" gate="A" pin="31"/>
<label x="208.28" y="114.3" size="1.778" layer="95"/>
</segment>
<segment>
<wire x1="53.34" y1="96.52" x2="66.04" y2="96.52" width="0.1524" layer="91"/>
<pinref part="REW_PUMP@13" gate="G$1" pin="2"/>
<label x="50.8" y="96.52" size="1.778" layer="95"/>
</segment>
</net>
<net name="PUMP_SIG$14" class="0">
<segment>
<wire x1="228.6" y1="111.76" x2="208.28" y2="111.76" width="0.1524" layer="91"/>
<pinref part="TO_ECU_DOUTS" gate="A" pin="33"/>
<label x="208.28" y="111.76" size="1.778" layer="95"/>
</segment>
<segment>
<wire x1="53.34" y1="73.66" x2="66.04" y2="73.66" width="0.1524" layer="91"/>
<pinref part="REW_PUMP@14" gate="G$1" pin="2"/>
<label x="50.8" y="73.66" size="1.778" layer="95"/>
</segment>
</net>
<net name="PUMP_SIG$15" class="0">
<segment>
<wire x1="228.6" y1="109.22" x2="208.28" y2="109.22" width="0.1524" layer="91"/>
<pinref part="TO_ECU_DOUTS" gate="A" pin="35"/>
<label x="208.28" y="109.22" size="1.778" layer="95"/>
</segment>
<segment>
<wire x1="53.34" y1="50.8" x2="66.04" y2="50.8" width="0.1524" layer="91"/>
<pinref part="REW_PUMP@15" gate="G$1" pin="2"/>
<label x="50.8" y="50.8" size="1.778" layer="95"/>
</segment>
</net>
<net name="PUMP_SIG$16" class="0">
<segment>
<wire x1="228.6" y1="106.68" x2="208.28" y2="106.68" width="0.1524" layer="91"/>
<pinref part="TO_ECU_DOUTS" gate="A" pin="37"/>
<label x="208.28" y="106.68" size="1.778" layer="95"/>
</segment>
<segment>
<wire x1="53.34" y1="27.94" x2="66.04" y2="27.94" width="0.1524" layer="91"/>
<pinref part="REW_PUMP@16" gate="G$1" pin="2"/>
<label x="50.8" y="27.94" size="1.778" layer="95"/>
</segment>
</net>
</nets>
</sheet>
</sheets>
</schematic>
</drawing>
<compatibility>
<note version="8.2" severity="warning">
Since Version 8.2, EAGLE supports online libraries. The ids
of those online libraries will not be understood (or retained)
with this version.
</note>
<note version="8.3" severity="warning">
Since Version 8.3, EAGLE supports URNs for individual library
assets (packages, symbols, and devices). The URNs of those assets
will not be understood (or retained) with this version.
</note>
<note version="8.3" severity="warning">
Since Version 8.3, EAGLE supports the association of 3D packages
with devices in libraries, schematics, and board files. Those 3D
packages will not be understood (or retained) with this version.
</note>
</compatibility>
</eagle>
