(footprint "CUI_SJ-43514" (version 20221018) (generator pcbnew)
  (layer "F.Cu")
  (fp_text reference "REF**" (at -4.5056 -6.50809) (layer "F.SilkS")
      (effects (font (size 0.56153 0.56153) (thickness 0.048829)) (justify left bottom))
    (tstamp 2372e98f-4f9d-474d-a0af-776b0f4493c5)
  )
  (fp_text value "CUI_SJ-43514" (at -4.75835 6.511431) (layer "F.Fab")
      (effects (font (size 0.561817 0.561817) (thickness 0.048854)) (justify left bottom))
    (tstamp 69cfab70-d222-4585-ac9d-49040effe422)
  )
  (fp_text user "PCB EDGE" (at -5.753318 8.5049 90) (layer "F.Fab")
      (effects (font (size 0.561157 0.561157) (thickness 0.048796)) (justify left bottom))
    (tstamp 28666209-0e1e-4c63-80a5-442e79733a84)
  )
  (fp_line (start -8.5 -3) (end -5.5 -3)
    (stroke (width 0.127) (type solid)) (layer "F.SilkS") (tstamp 4632395e-0125-47e1-aa25-095b5b23affc))
  (fp_line (start -8.5 3) (end -8.5 -3)
    (stroke (width 0.127) (type solid)) (layer "F.SilkS") (tstamp 333412b8-e050-48f6-979e-fa6d85c4123d))
  (fp_line (start -5.5 -4.7) (end -5.5 -3)
    (stroke (width 0.127) (type solid)) (layer "F.SilkS") (tstamp ad8e09d4-ce6c-4bd1-9fe3-9bb03f70fe33))
  (fp_line (start -5.5 -3) (end -5.5 -2.25)
    (stroke (width 0.127) (type solid)) (layer "F.SilkS") (tstamp 942a04ab-c42d-4f07-91a5-1167af9baf27))
  (fp_line (start -5.5 -2.25) (end -4.2 -2.25)
    (stroke (width 0.127) (type solid)) (layer "F.SilkS") (tstamp 38e7ce5e-5ca3-495b-980f-86d74b3c72e9))
  (fp_line (start -5.5 2.25) (end -5.5 3)
    (stroke (width 0.127) (type solid)) (layer "F.SilkS") (tstamp 2dfe6871-ffa2-40d3-bfee-66526e00fedb))
  (fp_line (start -5.5 3) (end -8.5 3)
    (stroke (width 0.127) (type solid)) (layer "F.SilkS") (tstamp a727c1a7-1f90-4930-8bad-24b490aba636))
  (fp_line (start -5.5 3) (end -5.5 4.3)
    (stroke (width 0.127) (type solid)) (layer "F.SilkS") (tstamp fcf28535-110f-4be2-ab84-066c10e5b5e2))
  (fp_line (start -5.5 4.3) (end -3.75 4.3)
    (stroke (width 0.127) (type solid)) (layer "F.SilkS") (tstamp 88e8358b-4e35-4707-8133-8308c96d0b59))
  (fp_line (start -4.2 -2.25) (end -4.2 2.25)
    (stroke (width 0.127) (type solid)) (layer "F.SilkS") (tstamp f13847fc-e573-4543-a621-7f5ae5cb9480))
  (fp_line (start -4.2 2.25) (end -5.5 2.25)
    (stroke (width 0.127) (type solid)) (layer "F.SilkS") (tstamp 2c215d99-e499-45d8-b9df-b482b10a8700))
  (fp_line (start -3.8 -4.7) (end -5.5 -4.7)
    (stroke (width 0.127) (type solid)) (layer "F.SilkS") (tstamp 3a56db4e-06b6-4242-a691-502b7bd70737))
  (fp_line (start -1.4 -4.7) (end 5.5 -4.7)
    (stroke (width 0.127) (type solid)) (layer "F.SilkS") (tstamp 5996f24f-f30b-4e5c-a963-8eabfb3eda7d))
  (fp_line (start 1.5 4.3) (end -1.55 4.3)
    (stroke (width 0.127) (type solid)) (layer "F.SilkS") (tstamp 605a1a62-a500-4975-a443-62c0b28d2877))
  (fp_line (start 5.5 -4.7) (end 5.5 -2.7)
    (stroke (width 0.127) (type solid)) (layer "F.SilkS") (tstamp f254bcdf-6389-4ac5-a7d3-5293ebb8496e))
  (fp_line (start 5.5 -0.35) (end 5.5 4.3)
    (stroke (width 0.127) (type solid)) (layer "F.SilkS") (tstamp cf263b5e-b455-4974-927d-e34e08bdeb40))
  (fp_line (start 5.5 4.3) (end 3.4 4.3)
    (stroke (width 0.127) (type solid)) (layer "F.SilkS") (tstamp 6e71a0b2-9601-40b5-93e7-d319a7f66607))
  (fp_circle (center -4 -5.5) (end -3.8 -5.5)
    (stroke (width 0.4) (type solid)) (fill none) (layer "F.SilkS") (tstamp d25a0fb4-aedb-40cb-88ff-956d5c341126))
  (fp_line (start -8.75 -3.25) (end -5.75 -3.25)
    (stroke (width 0.05) (type solid)) (layer "F.CrtYd") (tstamp 07b4aa2d-9b20-4a5f-88f4-63193bb92f39))
  (fp_line (start -8.75 3.25) (end -8.75 -3.25)
    (stroke (width 0.05) (type solid)) (layer "F.CrtYd") (tstamp 9ffae6f7-aa44-452f-bcdf-bb5421158ecf))
  (fp_line (start -5.75 -5) (end -3.65 -5)
    (stroke (width 0.05) (type solid)) (layer "F.CrtYd") (tstamp 47c56863-b0e1-4c36-85e0-6af762f86250))
  (fp_line (start -5.75 -3.25) (end -5.75 -5)
    (stroke (width 0.05) (type solid)) (layer "F.CrtYd") (tstamp 7b43c224-4a2b-444b-b699-9d6775bae48a))
  (fp_line (start -5.75 3.25) (end -8.75 3.25)
    (stroke (width 0.05) (type solid)) (layer "F.CrtYd") (tstamp 67a32692-f40a-4b84-a5b1-d4ee12d211f2))
  (fp_line (start -5.75 4.5) (end -5.75 3.25)
    (stroke (width 0.05) (type solid)) (layer "F.CrtYd") (tstamp 43a34336-cc91-45c4-b352-a92c06a15fe8))
  (fp_line (start -3.75 4.5) (end -5.75 4.5)
    (stroke (width 0.05) (type solid)) (layer "F.CrtYd") (tstamp ed19298f-6c0d-48b4-84ee-d4c404f61610))
  (fp_line (start -3.75 5.55) (end -3.75 4.5)
    (stroke (width 0.05) (type solid)) (layer "F.CrtYd") (tstamp ab8132b0-b733-4047-b1b6-e65572c13684))
  (fp_line (start -3.65 -5.85) (end -1.5 -5.85)
    (stroke (width 0.05) (type solid)) (layer "F.CrtYd") (tstamp 1cc49a5a-4a68-47f1-9a36-cec60407e10a))
  (fp_line (start -3.65 -5) (end -3.65 -5.85)
    (stroke (width 0.05) (type solid)) (layer "F.CrtYd") (tstamp a87ed487-5c30-49e9-9ab4-494e7d57fc59))
  (fp_line (start -1.5 -5.85) (end -1.5 -5)
    (stroke (width 0.05) (type solid)) (layer "F.CrtYd") (tstamp 3784a995-3ecf-41ee-af97-11bda88d0c95))
  (fp_line (start -1.5 -5) (end 5.75 -5)
    (stroke (width 0.05) (type solid)) (layer "F.CrtYd") (tstamp 461a88ba-f549-4fb3-a600-a577ccd4f948))
  (fp_line (start -1.5 4.75) (end -1.5 5.55)
    (stroke (width 0.05) (type solid)) (layer "F.CrtYd") (tstamp 5eafce46-d1ab-481e-bade-44edd1c84ab7))
  (fp_line (start -1.5 5.55) (end -3.75 5.55)
    (stroke (width 0.05) (type solid)) (layer "F.CrtYd") (tstamp ff74b2ea-3b19-41a0-b43b-72b3f597ce40))
  (fp_line (start 5.75 -5) (end 5.75 -2.5)
    (stroke (width 0.05) (type solid)) (layer "F.CrtYd") (tstamp ad1a4af1-060b-4ccc-94ab-de01e909d458))
  (fp_line (start 5.75 -2.5) (end 6.5 -2.5)
    (stroke (width 0.05) (type solid)) (layer "F.CrtYd") (tstamp 18dda9a2-4f1f-4a80-b4cc-7d9618f8debc))
  (fp_line (start 5.75 -0.5) (end 5.75 4.75)
    (stroke (width 0.05) (type solid)) (layer "F.CrtYd") (tstamp e85e818e-cf11-4bee-a6f4-88ff42ead627))
  (fp_line (start 5.75 4.75) (end -1.5 4.75)
    (stroke (width 0.05) (type solid)) (layer "F.CrtYd") (tstamp e7b85012-cbf1-4a69-b961-e462a127349a))
  (fp_line (start 6.5 -2.5) (end 6.5 -0.5)
    (stroke (width 0.05) (type solid)) (layer "F.CrtYd") (tstamp a7edffe7-e266-4887-80ac-486e08dbe24d))
  (fp_line (start 6.5 -0.5) (end 5.75 -0.5)
    (stroke (width 0.05) (type solid)) (layer "F.CrtYd") (tstamp 77a15a5e-8b37-4952-b79b-8175489e9e70))
  (fp_line (start -8.5 -3) (end -8.5 3)
    (stroke (width 0.127) (type solid)) (layer "F.Fab") (tstamp a7ae87c3-3f72-4925-84ae-516907e6381f))
  (fp_line (start -8.5 3) (end -5.5 3)
    (stroke (width 0.127) (type solid)) (layer "F.Fab") (tstamp 20aeb119-b1e9-4432-bf2e-a1fe786d9f8e))
  (fp_line (start -5.5 -4.7) (end -5.5 -3)
    (stroke (width 0.127) (type solid)) (layer "F.Fab") (tstamp 99e0613b-b254-4abf-9b87-c1b658f351d4))
  (fp_line (start -5.5 -4.7) (end 5.5 -4.7)
    (stroke (width 0.127) (type solid)) (layer "F.Fab") (tstamp 72f17f6e-6502-4c25-bf66-fb0f77d58b47))
  (fp_line (start -5.5 -3) (end -8.5 -3)
    (stroke (width 0.127) (type solid)) (layer "F.Fab") (tstamp db5fec11-39b4-43c0-aec9-06ddf5dc58ed))
  (fp_line (start -5.5 -3) (end -5.5 -2.25)
    (stroke (width 0.127) (type solid)) (layer "F.Fab") (tstamp ab5b088f-d838-4cdf-ad25-7cb68423fca5))
  (fp_line (start -5.5 -2.25) (end -4.2 -2.25)
    (stroke (width 0.127) (type solid)) (layer "F.Fab") (tstamp 5abec8d1-7bf4-4012-9621-c66027aceadb))
  (fp_line (start -5.5 2.25) (end -5.5 3)
    (stroke (width 0.127) (type solid)) (layer "F.Fab") (tstamp 1c4e68c8-4119-466c-90b7-67e4e80c74b4))
  (fp_line (start -5.5 3) (end -5.5 4.3)
    (stroke (width 0.127) (type solid)) (layer "F.Fab") (tstamp 1ce33a81-76f8-4d95-b6ab-12313024d16b))
  (fp_line (start -5.5 4.3) (end 5.5 4.3)
    (stroke (width 0.127) (type solid)) (layer "F.Fab") (tstamp 4a0f966a-b47e-4d9f-a0a5-3bcf06b56ed1))
  (fp_line (start -4.2 -2.25) (end -4.2 2.25)
    (stroke (width 0.127) (type solid)) (layer "F.Fab") (tstamp de56aca8-e9df-45ff-b930-4af6b611320b))
  (fp_line (start -4.2 2.25) (end -5.5 2.25)
    (stroke (width 0.127) (type solid)) (layer "F.Fab") (tstamp a3d9af68-75b7-418c-901e-53532479d83f))
  (fp_line (start 5.5 -4.7) (end 5.5 4.3)
    (stroke (width 0.127) (type solid)) (layer "F.Fab") (tstamp 0b272a62-bb9f-4edc-95de-b6af7f9123e5))
  (pad "" np_thru_hole circle (at -2.6 0) (size 1.1 1.1) (drill 1.1) (layers "*.Cu" "*.Mask") (tstamp 2e8f8758-3e30-4f45-bb6e-cbee8159089e))
  (pad "" np_thru_hole circle (at 2.4 0) (size 1.1 1.1) (drill 1.1) (layers "*.Cu" "*.Mask") (tstamp dd8e0aa4-dcff-4ff5-a32b-4ce77e7dc905))
  (pad "1" thru_hole rect (at -2.6 -4.8) (size 1.65 1.65) (drill 1.1) (layers "*.Cu" "*.Mask")
    (solder_mask_margin 0.1016) (thermal_bridge_angle 45) (tstamp 27813865-9be9-48c0-9e16-21b90cf659a0))
  (pad "2" thru_hole circle (at 2.4 3.6) (size 1.65 1.65) (drill 1.1) (layers "*.Cu" "*.Mask")
    (solder_mask_margin 0.1016) (tstamp 1e412520-4173-4941-ac81-2b495964a608))
  (pad "3" thru_hole circle (at 5.5 -1.6) (size 1.65 1.65) (drill 1.1) (layers "*.Cu" "*.Mask")
    (solder_mask_margin 0.1016) (tstamp 4d8ac6d8-08f9-439a-bb4b-d8128829512b))
  (pad "4" thru_hole circle (at -2.6 4.5) (size 1.65 1.65) (drill 1.1) (layers "*.Cu" "*.Mask")
    (solder_mask_margin 0.1016) (tstamp 12561cef-c8b2-4d94-82ff-92ff0aa0c941))
)
